<?xml version="1.0" encoding="utf-8"?>
<!DOCTYPE eagle SYSTEM "eagle.dtd">
<eagle version="8.4.0">
<drawing>
<settings>
<setting alwaysvectorfont="no"/>
<setting verticaltext="up"/>
</settings>
<grid distance="0.1" unitdist="inch" unit="inch" style="lines" multiple="1" display="no" altdistance="0.01" altunitdist="inch" altunit="inch"/>
<layers>
<layer number="1" name="Top" color="4" fill="1" visible="no" active="no"/>
<layer number="16" name="Bottom" color="1" fill="1" visible="no" active="no"/>
<layer number="17" name="Pads" color="2" fill="1" visible="no" active="no"/>
<layer number="18" name="Vias" color="2" fill="1" visible="no" active="no"/>
<layer number="19" name="Unrouted" color="6" fill="1" visible="no" active="no"/>
<layer number="20" name="Dimension" color="15" fill="1" visible="no" active="no"/>
<layer number="21" name="tPlace" color="7" fill="1" visible="no" active="no"/>
<layer number="22" name="bPlace" color="7" fill="1" visible="no" active="no"/>
<layer number="23" name="tOrigins" color="15" fill="1" visible="no" active="no"/>
<layer number="24" name="bOrigins" color="15" fill="1" visible="no" active="no"/>
<layer number="25" name="tNames" color="7" fill="1" visible="no" active="no"/>
<layer number="26" name="bNames" color="7" fill="1" visible="no" active="no"/>
<layer number="27" name="tValues" color="7" fill="1" visible="no" active="no"/>
<layer number="28" name="bValues" color="7" fill="1" visible="no" active="no"/>
<layer number="29" name="tStop" color="7" fill="3" visible="no" active="no"/>
<layer number="30" name="bStop" color="7" fill="6" visible="no" active="no"/>
<layer number="31" name="tCream" color="7" fill="4" visible="no" active="no"/>
<layer number="32" name="bCream" color="7" fill="5" visible="no" active="no"/>
<layer number="33" name="tFinish" color="6" fill="3" visible="no" active="no"/>
<layer number="34" name="bFinish" color="6" fill="6" visible="no" active="no"/>
<layer number="35" name="tGlue" color="7" fill="4" visible="no" active="no"/>
<layer number="36" name="bGlue" color="7" fill="5" visible="no" active="no"/>
<layer number="37" name="tTest" color="7" fill="1" visible="no" active="no"/>
<layer number="38" name="bTest" color="7" fill="1" visible="no" active="no"/>
<layer number="39" name="tKeepout" color="4" fill="11" visible="no" active="no"/>
<layer number="40" name="bKeepout" color="1" fill="11" visible="no" active="no"/>
<layer number="41" name="tRestrict" color="4" fill="10" visible="no" active="no"/>
<layer number="42" name="bRestrict" color="1" fill="10" visible="no" active="no"/>
<layer number="43" name="vRestrict" color="2" fill="10" visible="no" active="no"/>
<layer number="44" name="Drills" color="7" fill="1" visible="no" active="no"/>
<layer number="45" name="Holes" color="7" fill="1" visible="no" active="no"/>
<layer number="46" name="Milling" color="3" fill="1" visible="no" active="no"/>
<layer number="47" name="Measures" color="7" fill="1" visible="no" active="no"/>
<layer number="48" name="Document" color="7" fill="1" visible="no" active="no"/>
<layer number="49" name="Reference" color="7" fill="1" visible="no" active="no"/>
<layer number="50" name="dxf" color="7" fill="1" visible="no" active="no"/>
<layer number="51" name="tDocu" color="7" fill="1" visible="no" active="no"/>
<layer number="52" name="bDocu" color="7" fill="1" visible="no" active="no"/>
<layer number="53" name="tGND_GNDA" color="7" fill="9" visible="no" active="no"/>
<layer number="54" name="bGND_GNDA" color="1" fill="9" visible="no" active="no"/>
<layer number="56" name="wert" color="7" fill="1" visible="no" active="no"/>
<layer number="88" name="SimResults" color="9" fill="1" visible="yes" active="yes"/>
<layer number="89" name="SimProbes" color="9" fill="1" visible="yes" active="yes"/>
<layer number="90" name="Modules" color="5" fill="1" visible="yes" active="yes"/>
<layer number="91" name="Nets" color="2" fill="1" visible="yes" active="yes"/>
<layer number="92" name="Busses" color="1" fill="1" visible="yes" active="yes"/>
<layer number="93" name="Pins" color="2" fill="1" visible="no" active="yes"/>
<layer number="94" name="Symbols" color="4" fill="1" visible="yes" active="yes"/>
<layer number="95" name="Names" color="7" fill="1" visible="yes" active="yes"/>
<layer number="96" name="Values" color="7" fill="1" visible="yes" active="yes"/>
<layer number="97" name="Info" color="7" fill="1" visible="yes" active="yes"/>
<layer number="98" name="Guide" color="6" fill="1" visible="yes" active="yes"/>
<layer number="100" name="Muster" color="7" fill="1" visible="no" active="no"/>
<layer number="101" name="Patch_Top" color="12" fill="4" visible="yes" active="yes"/>
<layer number="102" name="Vscore" color="7" fill="1" visible="yes" active="yes"/>
<layer number="103" name="fp3" color="7" fill="1" visible="yes" active="yes"/>
<layer number="104" name="Name" color="7" fill="1" visible="yes" active="yes"/>
<layer number="105" name="Beschreib" color="9" fill="1" visible="yes" active="yes"/>
<layer number="106" name="BGA-Top" color="4" fill="1" visible="yes" active="yes"/>
<layer number="107" name="BD-Top" color="5" fill="1" visible="yes" active="yes"/>
<layer number="108" name="fp8" color="7" fill="1" visible="yes" active="yes"/>
<layer number="109" name="fp9" color="7" fill="1" visible="yes" active="yes"/>
<layer number="110" name="fp0" color="7" fill="1" visible="yes" active="yes"/>
<layer number="111" name="LPC17xx" color="7" fill="1" visible="yes" active="yes"/>
<layer number="112" name="tSilk" color="7" fill="1" visible="yes" active="yes"/>
<layer number="116" name="Patch_BOT" color="9" fill="4" visible="yes" active="yes"/>
<layer number="121" name="_tsilk" color="7" fill="1" visible="yes" active="yes"/>
<layer number="122" name="_bsilk" color="7" fill="1" visible="yes" active="yes"/>
<layer number="123" name="tTestmark" color="7" fill="1" visible="yes" active="yes"/>
<layer number="124" name="bTestmark" color="7" fill="1" visible="yes" active="yes"/>
<layer number="125" name="_tNames" color="7" fill="1" visible="yes" active="yes"/>
<layer number="126" name="_bNames" color="7" fill="1" visible="yes" active="yes"/>
<layer number="127" name="_tValues" color="7" fill="1" visible="yes" active="yes"/>
<layer number="128" name="_bValues" color="7" fill="1" visible="yes" active="yes"/>
<layer number="131" name="tAdjust" color="7" fill="1" visible="yes" active="yes"/>
<layer number="132" name="bAdjust" color="7" fill="1" visible="yes" active="yes"/>
<layer number="144" name="Drill_legend" color="7" fill="1" visible="yes" active="yes"/>
<layer number="151" name="HeatSink" color="7" fill="1" visible="yes" active="yes"/>
<layer number="152" name="_bDocu" color="7" fill="1" visible="yes" active="yes"/>
<layer number="199" name="Contour" color="7" fill="1" visible="yes" active="yes"/>
<layer number="200" name="200bmp" color="1" fill="10" visible="yes" active="yes"/>
<layer number="201" name="201bmp" color="2" fill="1" visible="no" active="no"/>
<layer number="202" name="202bmp" color="3" fill="1" visible="no" active="no"/>
<layer number="203" name="203bmp" color="4" fill="10" visible="yes" active="yes"/>
<layer number="204" name="204bmp" color="5" fill="10" visible="yes" active="yes"/>
<layer number="205" name="205bmp" color="6" fill="10" visible="yes" active="yes"/>
<layer number="206" name="206bmp" color="7" fill="10" visible="yes" active="yes"/>
<layer number="207" name="207bmp" color="8" fill="10" visible="yes" active="yes"/>
<layer number="208" name="208bmp" color="9" fill="10" visible="yes" active="yes"/>
<layer number="209" name="209bmp" color="7" fill="1" visible="yes" active="yes"/>
<layer number="210" name="210bmp" color="7" fill="1" visible="yes" active="yes"/>
<layer number="211" name="211bmp" color="7" fill="1" visible="yes" active="yes"/>
<layer number="212" name="212bmp" color="7" fill="1" visible="yes" active="yes"/>
<layer number="213" name="213bmp" color="7" fill="1" visible="yes" active="yes"/>
<layer number="214" name="214bmp" color="7" fill="1" visible="yes" active="yes"/>
<layer number="215" name="215bmp" color="7" fill="1" visible="yes" active="yes"/>
<layer number="216" name="216bmp" color="7" fill="1" visible="yes" active="yes"/>
<layer number="217" name="217bmp" color="18" fill="1" visible="no" active="no"/>
<layer number="218" name="218bmp" color="19" fill="1" visible="no" active="no"/>
<layer number="219" name="219bmp" color="20" fill="1" visible="no" active="no"/>
<layer number="220" name="220bmp" color="21" fill="1" visible="no" active="no"/>
<layer number="221" name="221bmp" color="22" fill="1" visible="no" active="no"/>
<layer number="222" name="222bmp" color="23" fill="1" visible="no" active="no"/>
<layer number="223" name="223bmp" color="24" fill="1" visible="no" active="no"/>
<layer number="224" name="224bmp" color="25" fill="1" visible="no" active="no"/>
<layer number="248" name="Housing" color="7" fill="1" visible="yes" active="yes"/>
<layer number="249" name="Edge" color="7" fill="1" visible="yes" active="yes"/>
<layer number="250" name="Descript" color="7" fill="1" visible="no" active="no"/>
<layer number="251" name="SMDround" color="7" fill="1" visible="no" active="no"/>
<layer number="254" name="cooling" color="7" fill="1" visible="yes" active="yes"/>
</layers>
<schematic xreflabel="%F%N/%S.%C%R" xrefpart="/%S.%C%R">
<libraries>
<library name="breakouts">
<packages>
<package name="SO28-NW">
<smd name="P$4" x="-3.7" y="4.445" dx="4" dy="0.6" layer="1"/>
<smd name="P$5" x="-3.7" y="3.175" dx="4" dy="0.6" layer="1"/>
<smd name="P$6" x="-3.7" y="1.905" dx="4" dy="0.6" layer="1"/>
<smd name="P$3" x="-3.7" y="5.715" dx="4" dy="0.6" layer="1"/>
<smd name="P$19" x="3.7" y="-3.175" dx="4" dy="0.6" layer="1"/>
<smd name="P$18" x="3.7" y="-4.445" dx="4" dy="0.6" layer="1"/>
<smd name="P$17" x="3.7" y="-5.715" dx="4" dy="0.6" layer="1"/>
<smd name="P$20" x="3.7" y="-1.905" dx="4" dy="0.6" layer="1"/>
<wire x1="-1.95" y1="8.8" x2="1.95" y2="8.8" width="0.127" layer="21"/>
<wire x1="1.95" y1="8.8" x2="1.95" y2="-8.8" width="0.127" layer="21"/>
<wire x1="1.95" y1="-8.8" x2="-1.95" y2="-8.8" width="0.127" layer="21"/>
<wire x1="-1.95" y1="-8.8" x2="-1.95" y2="8.8" width="0.127" layer="21"/>
<circle x="-1.05" y="8.3" radius="0.375" width="0.127" layer="21"/>
<rectangle x1="1.95" y1="1.755" x2="3" y2="2.055" layer="51"/>
<rectangle x1="-3" y1="1.755" x2="-1.95" y2="2.055" layer="51"/>
<rectangle x1="-3" y1="0.485" x2="-1.95" y2="0.785" layer="51"/>
<rectangle x1="-3" y1="-0.785" x2="-1.95" y2="-0.485" layer="51"/>
<rectangle x1="-3" y1="-2.055" x2="-1.95" y2="-1.755" layer="51"/>
<rectangle x1="1.95" y1="0.485" x2="3" y2="0.785" layer="51"/>
<rectangle x1="1.95" y1="-0.785" x2="3" y2="-0.485" layer="51"/>
<rectangle x1="1.95" y1="-2.055" x2="3" y2="-1.755" layer="51"/>
<smd name="P$2" x="-3.7" y="6.985" dx="4" dy="0.6" layer="1"/>
<smd name="P$7" x="-3.7" y="0.635" dx="4" dy="0.6" layer="1"/>
<smd name="P$16" x="3.7" y="-6.985" dx="4" dy="0.6" layer="1"/>
<smd name="P$21" x="3.7" y="-0.635" dx="4" dy="0.6" layer="1"/>
<rectangle x1="-3" y1="3.025" x2="-1.95" y2="3.325" layer="51"/>
<rectangle x1="-3" y1="-3.325" x2="-1.95" y2="-3.025" layer="51"/>
<rectangle x1="1.95" y1="-3.325" x2="3" y2="-3.025" layer="51"/>
<rectangle x1="1.95" y1="3.025" x2="3" y2="3.325" layer="51"/>
<smd name="P$22" x="3.7" y="0.635" dx="4" dy="0.6" layer="1"/>
<smd name="P$15" x="3.7" y="-8.255" dx="4" dy="0.6" layer="1"/>
<smd name="P$1" x="-3.7" y="8.255" dx="4" dy="0.6" layer="1"/>
<smd name="P$8" x="-3.7" y="-0.635" dx="4" dy="0.6" layer="1"/>
<rectangle x1="-3" y1="4.295" x2="-1.95" y2="4.595" layer="51"/>
<rectangle x1="1.95" y1="4.295" x2="3" y2="4.595" layer="51"/>
<rectangle x1="1.95" y1="-4.595" x2="3" y2="-4.295" layer="51"/>
<rectangle x1="-3" y1="-4.595" x2="-1.95" y2="-4.295" layer="51"/>
<smd name="P$9" x="-3.7" y="-1.905" dx="4" dy="0.6" layer="1"/>
<smd name="P$10" x="-3.7" y="-3.175" dx="4" dy="0.6" layer="1"/>
<smd name="P$23" x="3.7" y="1.905" dx="4" dy="0.6" layer="1"/>
<smd name="P$24" x="3.7" y="3.175" dx="4" dy="0.6" layer="1"/>
<rectangle x1="-3" y1="5.565" x2="-1.95" y2="5.865" layer="51"/>
<rectangle x1="1.95" y1="5.565" x2="3" y2="5.865" layer="51"/>
<rectangle x1="1.95" y1="-5.865" x2="3" y2="-5.565" layer="51"/>
<rectangle x1="-3" y1="-5.865" x2="-1.95" y2="-5.565" layer="51"/>
<rectangle x1="1.95" y1="6.835" x2="3" y2="7.135" layer="51"/>
<rectangle x1="1.95" y1="8.105" x2="3" y2="8.405" layer="51"/>
<rectangle x1="-3" y1="6.835" x2="-1.95" y2="7.135" layer="51"/>
<rectangle x1="-3" y1="8.105" x2="-1.95" y2="8.405" layer="51"/>
<rectangle x1="1.95" y1="-7.135" x2="3" y2="-6.835" layer="51"/>
<rectangle x1="1.95" y1="-8.405" x2="3" y2="-8.105" layer="51"/>
<rectangle x1="-3" y1="-7.135" x2="-1.95" y2="-6.835" layer="51"/>
<smd name="P$11" x="-3.7" y="-4.445" dx="4" dy="0.6" layer="1"/>
<smd name="P$12" x="-3.7" y="-5.715" dx="4" dy="0.6" layer="1"/>
<smd name="P$13" x="-3.7" y="-6.985" dx="4" dy="0.6" layer="1"/>
<smd name="P$14" x="-3.7" y="-8.255" dx="4" dy="0.6" layer="1"/>
<smd name="P$25" x="3.7" y="4.445" dx="4" dy="0.6" layer="1"/>
<smd name="P$26" x="3.7" y="5.715" dx="4" dy="0.6" layer="1"/>
<smd name="P$27" x="3.7" y="6.985" dx="4" dy="0.6" layer="1"/>
<smd name="P$28" x="3.7" y="8.255" dx="4" dy="0.6" layer="1"/>
<rectangle x1="-3" y1="-7.135" x2="-1.95" y2="-6.835" layer="51"/>
<wire x1="-3.75" y1="-8.935" x2="-3.75" y2="8.935" width="0.127" layer="21"/>
<rectangle x1="-5.2" y1="1.755" x2="-4.15" y2="2.055" layer="51"/>
<rectangle x1="-5.2" y1="0.485" x2="-4.15" y2="0.785" layer="51"/>
<rectangle x1="-5.2" y1="-0.785" x2="-4.15" y2="-0.485" layer="51"/>
<rectangle x1="-5.2" y1="-2.055" x2="-4.15" y2="-1.755" layer="51"/>
<rectangle x1="-5.2" y1="3.025" x2="-4.15" y2="3.325" layer="51"/>
<rectangle x1="-5.2" y1="-3.325" x2="-4.15" y2="-3.025" layer="51"/>
<rectangle x1="-5.2" y1="4.295" x2="-4.15" y2="4.595" layer="51"/>
<rectangle x1="-5.2" y1="-4.595" x2="-4.15" y2="-4.295" layer="51"/>
<rectangle x1="-5.2" y1="5.565" x2="-4.15" y2="5.865" layer="51"/>
<rectangle x1="-5.2" y1="-5.865" x2="-4.15" y2="-5.565" layer="51"/>
<rectangle x1="-5.2" y1="6.835" x2="-4.15" y2="7.135" layer="51"/>
<rectangle x1="-5.2" y1="8.105" x2="-4.15" y2="8.405" layer="51"/>
<rectangle x1="-5.2" y1="-7.135" x2="-4.15" y2="-6.835" layer="51"/>
<rectangle x1="-5.2" y1="-7.135" x2="-4.15" y2="-6.835" layer="51"/>
<rectangle x1="4.15" y1="1.755" x2="5.2" y2="2.055" layer="51"/>
<rectangle x1="4.15" y1="0.485" x2="5.2" y2="0.785" layer="51"/>
<rectangle x1="4.15" y1="-0.785" x2="5.2" y2="-0.485" layer="51"/>
<rectangle x1="4.15" y1="-2.055" x2="5.2" y2="-1.755" layer="51"/>
<rectangle x1="4.15" y1="-3.325" x2="5.2" y2="-3.025" layer="51"/>
<rectangle x1="4.15" y1="3.025" x2="5.2" y2="3.325" layer="51"/>
<rectangle x1="4.15" y1="4.295" x2="5.2" y2="4.595" layer="51"/>
<rectangle x1="4.15" y1="-4.595" x2="5.2" y2="-4.295" layer="51"/>
<rectangle x1="4.15" y1="5.565" x2="5.2" y2="5.865" layer="51"/>
<rectangle x1="4.15" y1="-5.865" x2="5.2" y2="-5.565" layer="51"/>
<rectangle x1="4.15" y1="6.835" x2="5.2" y2="7.135" layer="51"/>
<rectangle x1="4.15" y1="8.105" x2="5.2" y2="8.405" layer="51"/>
<rectangle x1="4.15" y1="-7.135" x2="5.2" y2="-6.835" layer="51"/>
<rectangle x1="4.15" y1="-8.405" x2="5.2" y2="-8.105" layer="51"/>
<rectangle x1="-3" y1="-8.405" x2="-1.95" y2="-8.105" layer="51"/>
<rectangle x1="-5.2" y1="-8.405" x2="-4.15" y2="-8.105" layer="51"/>
<wire x1="3.75" y1="8.935" x2="3.75" y2="-8.935" width="0.127" layer="21"/>
<wire x1="-3.75" y1="-8.935" x2="3.75" y2="-8.935" width="0.127" layer="21"/>
<wire x1="-3.75" y1="8.935" x2="3.75" y2="8.935" width="0.127" layer="21"/>
</package>
<package name="SO28-NM">
<smd name="P$3" x="-3.2" y="5.715" dx="2.2" dy="0.6" layer="1"/>
<smd name="P$4" x="-3.2" y="4.445" dx="2.2" dy="0.6" layer="1"/>
<smd name="P$5" x="-3.2" y="3.175" dx="2.2" dy="0.6" layer="1"/>
<smd name="P$2" x="-3.2" y="6.985" dx="2.2" dy="0.6" layer="1"/>
<smd name="P$18" x="3.2" y="-4.445" dx="2.2" dy="0.6" layer="1"/>
<smd name="P$17" x="3.2" y="-5.715" dx="2.2" dy="0.6" layer="1"/>
<smd name="P$16" x="3.2" y="-6.985" dx="2.2" dy="0.6" layer="1"/>
<smd name="P$19" x="3.2" y="-3.175" dx="2.2" dy="0.6" layer="1"/>
<wire x1="-2.64" y1="8.99" x2="2.64" y2="8.99" width="0.127" layer="49"/>
<wire x1="2.64" y1="8.99" x2="2.64" y2="-8.99" width="0.127" layer="49"/>
<wire x1="2.64" y1="-8.99" x2="-2.64" y2="-8.99" width="0.127" layer="49"/>
<wire x1="-2.64" y1="-8.99" x2="-2.64" y2="8.99" width="0.127" layer="49"/>
<wire x1="-1.95" y1="8.8" x2="1.95" y2="8.8" width="0.127" layer="49"/>
<wire x1="1.95" y1="8.8" x2="1.95" y2="-8.8" width="0.127" layer="49"/>
<wire x1="1.95" y1="-8.8" x2="-1.95" y2="-8.8" width="0.127" layer="49"/>
<wire x1="-1.95" y1="-8.8" x2="-1.95" y2="8.8" width="0.127" layer="49"/>
<circle x="-1.05" y="8.3" radius="0.375" width="0.127" layer="21"/>
<rectangle x1="1.95" y1="1.755" x2="3" y2="2.055" layer="49"/>
<rectangle x1="-3" y1="1.755" x2="-1.95" y2="2.055" layer="49"/>
<rectangle x1="-3" y1="0.485" x2="-1.95" y2="0.785" layer="49"/>
<rectangle x1="-3" y1="-0.785" x2="-1.95" y2="-0.485" layer="49"/>
<rectangle x1="-3" y1="-2.055" x2="-1.95" y2="-1.755" layer="49"/>
<rectangle x1="1.95" y1="0.485" x2="3" y2="0.785" layer="49"/>
<rectangle x1="1.95" y1="-0.785" x2="3" y2="-0.485" layer="49"/>
<rectangle x1="1.95" y1="-2.055" x2="3" y2="-1.755" layer="49"/>
<rectangle x1="2.64" y1="1.705" x2="4" y2="2.105" layer="49"/>
<rectangle x1="2.64" y1="0.435" x2="4" y2="0.835" layer="49"/>
<rectangle x1="2.64" y1="-0.835" x2="4" y2="-0.435" layer="49"/>
<rectangle x1="2.64" y1="-2.105" x2="4" y2="-1.705" layer="49"/>
<rectangle x1="-4" y1="1.705" x2="-2.64" y2="2.105" layer="49"/>
<rectangle x1="-4" y1="0.435" x2="-2.64" y2="0.835" layer="49"/>
<rectangle x1="-4" y1="-0.835" x2="-2.64" y2="-0.435" layer="49"/>
<rectangle x1="-4" y1="-2.105" x2="-2.64" y2="-1.705" layer="49"/>
<smd name="P$1" x="-3.2" y="8.255" dx="2.2" dy="0.6" layer="1"/>
<smd name="P$20" x="3.2" y="-1.905" dx="2.2" dy="0.6" layer="1"/>
<smd name="P$6" x="-3.2" y="1.905" dx="2.2" dy="0.6" layer="1"/>
<smd name="P$15" x="3.2" y="-8.255" dx="2.2" dy="0.6" layer="1"/>
<rectangle x1="-4" y1="2.975" x2="-2.64" y2="3.375" layer="49"/>
<rectangle x1="-4" y1="-3.375" x2="-2.64" y2="-2.975" layer="49"/>
<rectangle x1="2.64" y1="-3.375" x2="4" y2="-2.975" layer="49"/>
<rectangle x1="2.64" y1="2.975" x2="4" y2="3.375" layer="49"/>
<rectangle x1="1.95" y1="3.025" x2="3" y2="3.325" layer="49"/>
<rectangle x1="-3" y1="3.025" x2="-1.95" y2="3.325" layer="49"/>
<rectangle x1="-3" y1="-3.325" x2="-1.95" y2="-3.025" layer="49"/>
<rectangle x1="1.95" y1="-3.325" x2="3" y2="-3.025" layer="49"/>
<rectangle x1="-4" y1="4.245" x2="-2.64" y2="4.645" layer="49"/>
<rectangle x1="2.64" y1="4.245" x2="4" y2="4.645" layer="49"/>
<rectangle x1="1.95" y1="4.295" x2="3" y2="4.595" layer="49"/>
<rectangle x1="-3" y1="4.295" x2="-1.95" y2="4.595" layer="49"/>
<rectangle x1="-3" y1="-4.595" x2="-1.95" y2="-4.295" layer="49"/>
<rectangle x1="-4" y1="-4.645" x2="-2.64" y2="-4.245" layer="49"/>
<rectangle x1="1.95" y1="-4.595" x2="3" y2="-4.295" layer="49"/>
<rectangle x1="2.64" y1="-4.645" x2="4" y2="-4.245" layer="49"/>
<smd name="P$7" x="-3.2" y="0.635" dx="2.2" dy="0.6" layer="1"/>
<smd name="P$8" x="-3.2" y="-0.635" dx="2.2" dy="0.6" layer="1"/>
<smd name="P$21" x="3.2" y="-0.635" dx="2.2" dy="0.6" layer="1"/>
<smd name="P$22" x="3.2" y="0.635" dx="2.2" dy="0.6" layer="1"/>
<rectangle x1="-4" y1="5.515" x2="-2.64" y2="5.915" layer="49"/>
<rectangle x1="-4" y1="-5.915" x2="-2.64" y2="-5.515" layer="49"/>
<rectangle x1="2.64" y1="-5.915" x2="4" y2="-5.515" layer="49"/>
<rectangle x1="2.64" y1="5.515" x2="4" y2="5.915" layer="49"/>
<rectangle x1="1.95" y1="5.565" x2="3" y2="5.865" layer="49"/>
<rectangle x1="1.95" y1="-5.865" x2="3" y2="-5.565" layer="49"/>
<rectangle x1="-3" y1="-5.865" x2="-1.95" y2="-5.565" layer="49"/>
<rectangle x1="-3" y1="5.565" x2="-1.95" y2="5.865" layer="49"/>
<smd name="P$9" x="-3.2" y="-1.905" dx="2.2" dy="0.6" layer="1"/>
<smd name="P$10" x="-3.2" y="-3.175" dx="2.2" dy="0.6" layer="1"/>
<smd name="P$23" x="3.2" y="1.905" dx="2.2" dy="0.6" layer="1"/>
<smd name="P$24" x="3.2" y="3.175" dx="2.2" dy="0.6" layer="1"/>
<rectangle x1="2.64" y1="6.785" x2="4" y2="7.185" layer="49"/>
<rectangle x1="2.64" y1="8.055" x2="4" y2="8.455" layer="49"/>
<rectangle x1="2.64" y1="-8.455" x2="4" y2="-8.055" layer="49"/>
<rectangle x1="2.64" y1="-7.185" x2="4" y2="-6.785" layer="49"/>
<rectangle x1="-4" y1="-7.185" x2="-2.64" y2="-6.785" layer="49"/>
<rectangle x1="-4" y1="-8.455" x2="-2.64" y2="-8.055" layer="49"/>
<rectangle x1="-4" y1="8.055" x2="-2.64" y2="8.455" layer="49"/>
<rectangle x1="-4" y1="6.785" x2="-2.64" y2="7.185" layer="49"/>
<rectangle x1="-3" y1="6.835" x2="-1.95" y2="7.135" layer="49"/>
<rectangle x1="-3" y1="8.105" x2="-1.95" y2="8.405" layer="49"/>
<rectangle x1="1.95" y1="6.835" x2="3" y2="7.135" layer="49"/>
<rectangle x1="1.95" y1="8.105" x2="3" y2="8.405" layer="49"/>
<rectangle x1="1.95" y1="-8.405" x2="3" y2="-8.105" layer="49"/>
<rectangle x1="1.95" y1="-7.135" x2="3" y2="-6.835" layer="49"/>
<rectangle x1="-3" y1="-8.405" x2="-1.95" y2="-8.105" layer="49"/>
<rectangle x1="-3" y1="-7.135" x2="-1.95" y2="-6.835" layer="49"/>
<smd name="P$11" x="-3.2" y="-4.445" dx="2.2" dy="0.6" layer="1"/>
<smd name="P$12" x="-3.2" y="-5.715" dx="2.2" dy="0.6" layer="1"/>
<smd name="P$13" x="-3.2" y="-6.985" dx="2.2" dy="0.6" layer="1"/>
<smd name="P$14" x="-3.2" y="-8.255" dx="2.2" dy="0.6" layer="1"/>
<smd name="P$25" x="3.2" y="4.445" dx="2.2" dy="0.6" layer="1"/>
<smd name="P$26" x="3.2" y="5.715" dx="2.2" dy="0.6" layer="1"/>
<smd name="P$27" x="3.2" y="6.985" dx="2.2" dy="0.6" layer="1"/>
<smd name="P$28" x="3.2" y="8.255" dx="2.2" dy="0.6" layer="1"/>
</package>
<package name="SO28-M">
<smd name="P$4" x="-3.7" y="4.445" dx="1.2" dy="0.6" layer="1"/>
<smd name="P$5" x="-3.7" y="3.175" dx="1.2" dy="0.6" layer="1"/>
<smd name="P$6" x="-3.7" y="1.905" dx="1.2" dy="0.6" layer="1"/>
<smd name="P$3" x="-3.7" y="5.715" dx="1.2" dy="0.6" layer="1"/>
<smd name="P$19" x="3.7" y="-3.175" dx="1.2" dy="0.6" layer="1"/>
<smd name="P$18" x="3.7" y="-4.445" dx="1.2" dy="0.6" layer="1"/>
<smd name="P$17" x="3.7" y="-5.715" dx="1.2" dy="0.6" layer="1"/>
<smd name="P$20" x="3.7" y="-1.905" dx="1.2" dy="0.6" layer="1"/>
<wire x1="-2.64" y1="8.99" x2="2.64" y2="8.99" width="0.127" layer="49"/>
<wire x1="2.64" y1="8.99" x2="2.64" y2="-8.99" width="0.127" layer="49"/>
<wire x1="2.64" y1="-8.99" x2="-2.64" y2="-8.99" width="0.127" layer="49"/>
<wire x1="-2.64" y1="-8.99" x2="-2.64" y2="8.99" width="0.127" layer="49"/>
<circle x="-1.05" y="8.3" radius="0.375" width="0.127" layer="21"/>
<rectangle x1="2.64" y1="1.705" x2="4" y2="2.105" layer="49"/>
<rectangle x1="2.64" y1="0.435" x2="4" y2="0.835" layer="49"/>
<rectangle x1="2.64" y1="-0.835" x2="4" y2="-0.435" layer="49"/>
<rectangle x1="2.64" y1="-2.105" x2="4" y2="-1.705" layer="49"/>
<rectangle x1="-4" y1="1.705" x2="-2.64" y2="2.105" layer="49"/>
<rectangle x1="-4" y1="0.435" x2="-2.64" y2="0.835" layer="49"/>
<rectangle x1="-4" y1="-0.835" x2="-2.64" y2="-0.435" layer="49"/>
<rectangle x1="-4" y1="-2.105" x2="-2.64" y2="-1.705" layer="49"/>
<smd name="P$21" x="3.7" y="-0.635" dx="1.2" dy="0.6" layer="1"/>
<smd name="P$2" x="-3.7" y="6.985" dx="1.2" dy="0.6" layer="1"/>
<smd name="P$7" x="-3.7" y="0.635" dx="1.2" dy="0.6" layer="1"/>
<smd name="P$16" x="3.7" y="-6.985" dx="1.2" dy="0.6" layer="1"/>
<rectangle x1="-4" y1="2.975" x2="-2.64" y2="3.375" layer="49"/>
<rectangle x1="-4" y1="-3.375" x2="-2.64" y2="-2.975" layer="49"/>
<rectangle x1="2.64" y1="2.975" x2="4" y2="3.375" layer="49"/>
<rectangle x1="2.64" y1="-3.375" x2="4" y2="-2.975" layer="49"/>
<rectangle x1="-4" y1="4.245" x2="-2.64" y2="4.645" layer="49"/>
<rectangle x1="2.64" y1="4.245" x2="4" y2="4.645" layer="49"/>
<rectangle x1="2.64" y1="-4.645" x2="4" y2="-4.245" layer="49"/>
<rectangle x1="-4" y1="-4.645" x2="-2.64" y2="-4.245" layer="49"/>
<smd name="P$22" x="3.7" y="0.635" dx="1.2" dy="0.6" layer="1"/>
<smd name="P$15" x="3.7" y="-8.255" dx="1.2" dy="0.6" layer="1"/>
<smd name="P$1" x="-3.7" y="8.255" dx="1.2" dy="0.6" layer="1"/>
<smd name="P$8" x="-3.7" y="-0.635" dx="1.2" dy="0.6" layer="1"/>
<rectangle x1="-4" y1="5.515" x2="-2.64" y2="5.915" layer="49"/>
<rectangle x1="2.64" y1="5.515" x2="4" y2="5.915" layer="49"/>
<rectangle x1="2.64" y1="-5.915" x2="4" y2="-5.515" layer="49"/>
<rectangle x1="-4" y1="-5.915" x2="-2.64" y2="-5.515" layer="49"/>
<smd name="P$9" x="-3.7" y="-1.905" dx="1.2" dy="0.6" layer="1"/>
<smd name="P$10" x="-3.7" y="-3.175" dx="1.2" dy="0.6" layer="1"/>
<smd name="P$23" x="3.7" y="1.905" dx="1.2" dy="0.6" layer="1"/>
<smd name="P$24" x="3.7" y="3.175" dx="1.2" dy="0.6" layer="1"/>
<rectangle x1="2.64" y1="6.785" x2="4" y2="7.185" layer="49"/>
<rectangle x1="2.64" y1="8.055" x2="4" y2="8.455" layer="49"/>
<rectangle x1="2.64" y1="-7.185" x2="4" y2="-6.785" layer="49"/>
<rectangle x1="2.64" y1="-8.455" x2="4" y2="-8.055" layer="49"/>
<rectangle x1="-4" y1="-7.185" x2="-2.64" y2="-6.785" layer="49"/>
<rectangle x1="-4" y1="-8.455" x2="-2.64" y2="-8.055" layer="49"/>
<rectangle x1="-4" y1="6.785" x2="-2.64" y2="7.185" layer="49"/>
<rectangle x1="-4" y1="8.055" x2="-2.64" y2="8.455" layer="49"/>
<smd name="P$11" x="-3.7" y="-4.445" dx="1.2" dy="0.6" layer="1"/>
<smd name="P$12" x="-3.7" y="-5.715" dx="1.2" dy="0.6" layer="1"/>
<smd name="P$13" x="-3.7" y="-6.985" dx="1.2" dy="0.6" layer="1"/>
<smd name="P$14" x="-3.7" y="-8.255" dx="1.2" dy="0.6" layer="1"/>
<smd name="P$25" x="3.7" y="4.445" dx="1.2" dy="0.6" layer="1"/>
<smd name="P$26" x="3.7" y="5.715" dx="1.2" dy="0.6" layer="1"/>
<smd name="P$27" x="3.7" y="6.985" dx="1.2" dy="0.6" layer="1"/>
<smd name="P$28" x="3.7" y="8.255" dx="1.2" dy="0.6" layer="1"/>
</package>
<package name="TSSOP28-3.9">
<smd name="P$19" x="2.65" y="-1.625" dx="1.4" dy="0.35" layer="1"/>
<smd name="P$18" x="2.65" y="-2.275" dx="1.4" dy="0.35" layer="1"/>
<smd name="P$17" x="2.65" y="-2.925" dx="1.4" dy="0.35" layer="1"/>
<smd name="P$16" x="2.65" y="-3.575" dx="1.4" dy="0.35" layer="1"/>
<smd name="P$5" x="-2.65" y="1.625" dx="1.4" dy="0.35" layer="1"/>
<smd name="P$4" x="-2.65" y="2.275" dx="1.4" dy="0.35" layer="1"/>
<smd name="P$3" x="-2.65" y="2.925" dx="1.4" dy="0.35" layer="1"/>
<smd name="P$2" x="-2.65" y="3.575" dx="1.4" dy="0.35" layer="1"/>
<wire x1="-1.95" y1="4.8" x2="1.95" y2="4.8" width="0.127" layer="49"/>
<wire x1="1.95" y1="4.8" x2="1.95" y2="-4.8" width="0.127" layer="49"/>
<wire x1="1.95" y1="-4.8" x2="-1.95" y2="-4.8" width="0.127" layer="49"/>
<wire x1="-1.95" y1="-4.8" x2="-1.95" y2="4.8" width="0.127" layer="49"/>
<rectangle x1="1.95" y1="0.825" x2="3" y2="1.125" layer="49"/>
<rectangle x1="1.95" y1="0.175" x2="3" y2="0.475" layer="49"/>
<rectangle x1="1.95" y1="-0.475" x2="3" y2="-0.175" layer="49"/>
<rectangle x1="1.95" y1="-1.125" x2="3" y2="-0.825" layer="49"/>
<rectangle x1="-3" y1="0.825" x2="-1.95" y2="1.125" layer="49"/>
<rectangle x1="-3" y1="0.175" x2="-1.95" y2="0.475" layer="49"/>
<rectangle x1="-3" y1="-0.475" x2="-1.95" y2="-0.175" layer="49"/>
<rectangle x1="-3" y1="-1.125" x2="-1.95" y2="-0.825" layer="49"/>
<circle x="-1.125" y="4.195" radius="0.325" width="0.127" layer="21"/>
<smd name="P$15" x="2.65" y="-4.225" dx="1.4" dy="0.35" layer="1"/>
<smd name="P$20" x="2.65" y="-0.975" dx="1.4" dy="0.35" layer="1"/>
<smd name="P$1" x="-2.65" y="4.225" dx="1.4" dy="0.35" layer="1"/>
<smd name="P$6" x="-2.65" y="0.975" dx="1.4" dy="0.35" layer="1"/>
<rectangle x1="-3" y1="1.475" x2="-1.95" y2="1.775" layer="49"/>
<rectangle x1="-3" y1="-1.775" x2="-1.95" y2="-1.475" layer="49"/>
<rectangle x1="1.95" y1="-1.775" x2="3" y2="-1.475" layer="49"/>
<rectangle x1="1.95" y1="1.475" x2="3" y2="1.775" layer="49"/>
<rectangle x1="-3" y1="2.125" x2="-1.95" y2="2.425" layer="49"/>
<rectangle x1="1.95" y1="2.125" x2="3" y2="2.425" layer="49"/>
<rectangle x1="1.95" y1="-2.425" x2="3" y2="-2.125" layer="49"/>
<rectangle x1="-3" y1="-2.425" x2="-1.95" y2="-2.125" layer="49"/>
<smd name="P$7" x="-2.65" y="0.325" dx="1.4" dy="0.35" layer="1"/>
<smd name="P$8" x="-2.65" y="-0.325" dx="1.4" dy="0.35" layer="1"/>
<smd name="P$21" x="2.65" y="-0.325" dx="1.4" dy="0.35" layer="1"/>
<smd name="P$22" x="2.65" y="0.325" dx="1.4" dy="0.35" layer="1"/>
<rectangle x1="-3" y1="2.775" x2="-1.95" y2="3.075" layer="49"/>
<rectangle x1="-3" y1="-3.075" x2="-1.95" y2="-2.775" layer="49"/>
<rectangle x1="1.95" y1="-3.075" x2="3" y2="-2.775" layer="49"/>
<rectangle x1="1.95" y1="2.775" x2="3" y2="3.075" layer="49"/>
<smd name="P$9" x="-2.65" y="-0.975" dx="1.4" dy="0.35" layer="1"/>
<smd name="P$10" x="-2.65" y="-1.625" dx="1.4" dy="0.35" layer="1"/>
<smd name="P$23" x="2.65" y="0.975" dx="1.4" dy="0.35" layer="1"/>
<smd name="P$24" x="2.65" y="1.625" dx="1.4" dy="0.35" layer="1"/>
<rectangle x1="1.95" y1="3.425" x2="3" y2="3.725" layer="49"/>
<rectangle x1="1.95" y1="4.075" x2="3" y2="4.375" layer="49"/>
<rectangle x1="1.95" y1="-3.725" x2="3" y2="-3.425" layer="49"/>
<rectangle x1="1.95" y1="-4.375" x2="3" y2="-4.075" layer="49"/>
<rectangle x1="-3" y1="-3.725" x2="-1.95" y2="-3.425" layer="49"/>
<rectangle x1="-3" y1="-4.375" x2="-1.95" y2="-4.075" layer="49"/>
<rectangle x1="-3" y1="3.425" x2="-1.95" y2="3.725" layer="49"/>
<rectangle x1="-3" y1="4.075" x2="-1.95" y2="4.375" layer="49"/>
<smd name="P$11" x="-2.65" y="-2.275" dx="1.4" dy="0.35" layer="1"/>
<smd name="P$12" x="-2.65" y="-2.925" dx="1.4" dy="0.35" layer="1"/>
<smd name="P$13" x="-2.65" y="-3.575" dx="1.4" dy="0.35" layer="1"/>
<smd name="P$14" x="-2.65" y="-4.225" dx="1.4" dy="0.35" layer="1"/>
<smd name="P$25" x="2.65" y="2.275" dx="1.4" dy="0.35" layer="1"/>
<smd name="P$26" x="2.65" y="2.925" dx="1.4" dy="0.35" layer="1"/>
<smd name="P$27" x="2.65" y="3.575" dx="1.4" dy="0.35" layer="1"/>
<smd name="P$28" x="2.65" y="4.225" dx="1.4" dy="0.35" layer="1"/>
</package>
<package name="SO28-N">
<smd name="P$4" x="-2.7" y="4.445" dx="1.2" dy="0.6" layer="1"/>
<smd name="P$5" x="-2.7" y="3.175" dx="1.2" dy="0.6" layer="1"/>
<smd name="P$6" x="-2.7" y="1.905" dx="1.2" dy="0.6" layer="1"/>
<smd name="P$3" x="-2.7" y="5.715" dx="1.2" dy="0.6" layer="1"/>
<smd name="P$19" x="2.7" y="-3.175" dx="1.2" dy="0.6" layer="1"/>
<smd name="P$18" x="2.7" y="-4.445" dx="1.2" dy="0.6" layer="1"/>
<smd name="P$17" x="2.7" y="-5.715" dx="1.2" dy="0.6" layer="1"/>
<smd name="P$20" x="2.7" y="-1.905" dx="1.2" dy="0.6" layer="1"/>
<wire x1="-1.95" y1="8.8" x2="1.95" y2="8.8" width="0.127" layer="49"/>
<wire x1="1.95" y1="8.8" x2="1.95" y2="-8.8" width="0.127" layer="49"/>
<wire x1="1.95" y1="-8.8" x2="-1.95" y2="-8.8" width="0.127" layer="49"/>
<wire x1="-1.95" y1="-8.8" x2="-1.95" y2="8.8" width="0.127" layer="49"/>
<circle x="-1.05" y="8.3" radius="0.375" width="0.127" layer="21"/>
<rectangle x1="1.95" y1="1.755" x2="3" y2="2.055" layer="49"/>
<rectangle x1="-3" y1="1.755" x2="-1.95" y2="2.055" layer="49"/>
<rectangle x1="-3" y1="0.485" x2="-1.95" y2="0.785" layer="49"/>
<rectangle x1="-3" y1="-0.785" x2="-1.95" y2="-0.485" layer="49"/>
<rectangle x1="-3" y1="-2.055" x2="-1.95" y2="-1.755" layer="49"/>
<rectangle x1="1.95" y1="0.485" x2="3" y2="0.785" layer="49"/>
<rectangle x1="1.95" y1="-0.785" x2="3" y2="-0.485" layer="49"/>
<rectangle x1="1.95" y1="-2.055" x2="3" y2="-1.755" layer="49"/>
<smd name="P$2" x="-2.7" y="6.985" dx="1.2" dy="0.6" layer="1"/>
<smd name="P$7" x="-2.7" y="0.635" dx="1.2" dy="0.6" layer="1"/>
<smd name="P$16" x="2.7" y="-6.985" dx="1.2" dy="0.6" layer="1"/>
<smd name="P$21" x="2.7" y="-0.635" dx="1.2" dy="0.6" layer="1"/>
<rectangle x1="-3" y1="3.025" x2="-1.95" y2="3.325" layer="49"/>
<rectangle x1="-3" y1="-3.325" x2="-1.95" y2="-3.025" layer="49"/>
<rectangle x1="1.95" y1="-3.325" x2="3" y2="-3.025" layer="49"/>
<rectangle x1="1.95" y1="3.025" x2="3" y2="3.325" layer="49"/>
<smd name="P$22" x="2.7" y="0.635" dx="1.2" dy="0.6" layer="1"/>
<smd name="P$15" x="2.7" y="-8.255" dx="1.2" dy="0.6" layer="1"/>
<smd name="P$1" x="-2.7" y="8.255" dx="1.2" dy="0.6" layer="1"/>
<smd name="P$8" x="-2.7" y="-0.635" dx="1.2" dy="0.6" layer="1"/>
<rectangle x1="-3" y1="4.295" x2="-1.95" y2="4.595" layer="49"/>
<rectangle x1="1.95" y1="4.295" x2="3" y2="4.595" layer="49"/>
<rectangle x1="1.95" y1="-4.595" x2="3" y2="-4.295" layer="49"/>
<rectangle x1="-3" y1="-4.595" x2="-1.95" y2="-4.295" layer="49"/>
<smd name="P$9" x="-2.7" y="-1.905" dx="1.2" dy="0.6" layer="1"/>
<smd name="P$10" x="-2.7" y="-3.175" dx="1.2" dy="0.6" layer="1"/>
<smd name="P$23" x="2.7" y="1.905" dx="1.2" dy="0.6" layer="1"/>
<smd name="P$24" x="2.7" y="3.175" dx="1.2" dy="0.6" layer="1"/>
<rectangle x1="-3" y1="5.565" x2="-1.95" y2="5.865" layer="49"/>
<rectangle x1="1.95" y1="5.565" x2="3" y2="5.865" layer="49"/>
<rectangle x1="1.95" y1="-5.865" x2="3" y2="-5.565" layer="49"/>
<rectangle x1="-3" y1="-5.865" x2="-1.95" y2="-5.565" layer="49"/>
<rectangle x1="1.95" y1="6.835" x2="3" y2="7.135" layer="49"/>
<rectangle x1="1.95" y1="8.105" x2="3" y2="8.405" layer="49"/>
<rectangle x1="-3" y1="6.835" x2="-1.95" y2="7.135" layer="49"/>
<rectangle x1="-3" y1="8.105" x2="-1.95" y2="8.405" layer="49"/>
<rectangle x1="1.95" y1="-7.135" x2="3" y2="-6.835" layer="49"/>
<rectangle x1="1.95" y1="-8.405" x2="3" y2="-8.105" layer="49"/>
<rectangle x1="-3" y1="-7.135" x2="-1.95" y2="-6.835" layer="49"/>
<smd name="P$11" x="-2.7" y="-4.445" dx="1.2" dy="0.6" layer="1"/>
<smd name="P$12" x="-2.7" y="-5.715" dx="1.2" dy="0.6" layer="1"/>
<smd name="P$13" x="-2.7" y="-6.985" dx="1.2" dy="0.6" layer="1"/>
<smd name="P$14" x="-2.7" y="-8.255" dx="1.2" dy="0.6" layer="1"/>
<smd name="P$25" x="2.7" y="4.445" dx="1.2" dy="0.6" layer="1"/>
<smd name="P$26" x="2.7" y="5.715" dx="1.2" dy="0.6" layer="1"/>
<smd name="P$27" x="2.7" y="6.985" dx="1.2" dy="0.6" layer="1"/>
<smd name="P$28" x="2.7" y="8.255" dx="1.2" dy="0.6" layer="1"/>
<rectangle x1="-3" y1="-8.405" x2="-1.95" y2="-8.105" layer="49"/>
</package>
<package name="SO28-MW">
<smd name="P$4" x="-4.2" y="4.445" dx="2.2" dy="0.6" layer="1"/>
<smd name="P$5" x="-4.2" y="3.175" dx="2.2" dy="0.6" layer="1"/>
<smd name="P$6" x="-4.2" y="1.905" dx="2.2" dy="0.6" layer="1"/>
<smd name="P$3" x="-4.2" y="5.715" dx="2.2" dy="0.6" layer="1"/>
<smd name="P$19" x="4.2" y="-3.175" dx="2.2" dy="0.6" layer="1"/>
<smd name="P$18" x="4.2" y="-4.445" dx="2.2" dy="0.6" layer="1"/>
<smd name="P$17" x="4.2" y="-5.715" dx="2.2" dy="0.6" layer="1"/>
<smd name="P$20" x="4.2" y="-1.905" dx="2.2" dy="0.6" layer="1"/>
<wire x1="-2.64" y1="8.99" x2="2.64" y2="8.99" width="0.127" layer="49"/>
<wire x1="2.64" y1="8.99" x2="2.64" y2="-8.99" width="0.127" layer="49"/>
<wire x1="2.64" y1="-8.99" x2="-2.64" y2="-8.99" width="0.127" layer="49"/>
<wire x1="-2.64" y1="-8.99" x2="-2.64" y2="8.99" width="0.127" layer="49"/>
<circle x="-1.05" y="8.3" radius="0.375" width="0.127" layer="21"/>
<rectangle x1="2.64" y1="1.705" x2="4" y2="2.105" layer="49"/>
<rectangle x1="2.64" y1="0.435" x2="4" y2="0.835" layer="49"/>
<rectangle x1="2.64" y1="-0.835" x2="4" y2="-0.435" layer="49"/>
<rectangle x1="2.64" y1="-2.105" x2="4" y2="-1.705" layer="49"/>
<rectangle x1="-4" y1="1.705" x2="-2.64" y2="2.105" layer="49"/>
<rectangle x1="-4" y1="0.435" x2="-2.64" y2="0.835" layer="49"/>
<rectangle x1="-4" y1="-0.835" x2="-2.64" y2="-0.435" layer="49"/>
<rectangle x1="-4" y1="-2.105" x2="-2.64" y2="-1.705" layer="49"/>
<smd name="P$21" x="4.2" y="-0.635" dx="2.2" dy="0.6" layer="1"/>
<smd name="P$2" x="-4.2" y="6.985" dx="2.2" dy="0.6" layer="1"/>
<smd name="P$7" x="-4.2" y="0.635" dx="2.2" dy="0.6" layer="1"/>
<smd name="P$16" x="4.2" y="-6.985" dx="2.2" dy="0.6" layer="1"/>
<rectangle x1="-4" y1="2.975" x2="-2.64" y2="3.375" layer="49"/>
<rectangle x1="-4" y1="-3.375" x2="-2.64" y2="-2.975" layer="49"/>
<rectangle x1="2.64" y1="2.975" x2="4" y2="3.375" layer="49"/>
<rectangle x1="2.64" y1="-3.375" x2="4" y2="-2.975" layer="49"/>
<rectangle x1="-4" y1="4.245" x2="-2.64" y2="4.645" layer="49"/>
<rectangle x1="2.64" y1="4.245" x2="4" y2="4.645" layer="49"/>
<rectangle x1="2.64" y1="-4.645" x2="4" y2="-4.245" layer="49"/>
<rectangle x1="-4" y1="-4.645" x2="-2.64" y2="-4.245" layer="49"/>
<smd name="P$22" x="4.2" y="0.635" dx="2.2" dy="0.6" layer="1"/>
<smd name="P$15" x="4.2" y="-8.255" dx="2.2" dy="0.6" layer="1"/>
<smd name="P$1" x="-4.2" y="8.255" dx="2.2" dy="0.6" layer="1"/>
<smd name="P$8" x="-4.2" y="-0.635" dx="2.2" dy="0.6" layer="1"/>
<rectangle x1="-4" y1="5.515" x2="-2.64" y2="5.915" layer="49"/>
<rectangle x1="2.64" y1="5.515" x2="4" y2="5.915" layer="49"/>
<rectangle x1="2.64" y1="-5.915" x2="4" y2="-5.515" layer="49"/>
<rectangle x1="-4" y1="-5.915" x2="-2.64" y2="-5.515" layer="49"/>
<smd name="P$9" x="-4.2" y="-1.905" dx="2.2" dy="0.6" layer="1"/>
<smd name="P$10" x="-4.2" y="-3.175" dx="2.2" dy="0.6" layer="1"/>
<smd name="P$23" x="4.2" y="1.905" dx="2.2" dy="0.6" layer="1"/>
<smd name="P$24" x="4.2" y="3.175" dx="2.2" dy="0.6" layer="1"/>
<rectangle x1="2.64" y1="6.785" x2="4" y2="7.185" layer="49"/>
<rectangle x1="2.64" y1="8.055" x2="4" y2="8.455" layer="49"/>
<rectangle x1="2.64" y1="-7.185" x2="4" y2="-6.785" layer="49"/>
<rectangle x1="2.64" y1="-8.455" x2="4" y2="-8.055" layer="49"/>
<rectangle x1="-4" y1="-7.185" x2="-2.64" y2="-6.785" layer="49"/>
<rectangle x1="-4" y1="-8.455" x2="-2.64" y2="-8.055" layer="49"/>
<rectangle x1="-4" y1="6.785" x2="-2.64" y2="7.185" layer="49"/>
<rectangle x1="-4" y1="8.055" x2="-2.64" y2="8.455" layer="49"/>
<smd name="P$11" x="-4.2" y="-4.445" dx="2.2" dy="0.6" layer="1"/>
<smd name="P$12" x="-4.2" y="-5.715" dx="2.2" dy="0.6" layer="1"/>
<smd name="P$13" x="-4.2" y="-6.985" dx="2.2" dy="0.6" layer="1"/>
<smd name="P$14" x="-4.2" y="-8.255" dx="2.2" dy="0.6" layer="1"/>
<smd name="P$25" x="4.2" y="4.445" dx="2.2" dy="0.6" layer="1"/>
<smd name="P$26" x="4.2" y="5.715" dx="2.2" dy="0.6" layer="1"/>
<smd name="P$27" x="4.2" y="6.985" dx="2.2" dy="0.6" layer="1"/>
<smd name="P$28" x="4.2" y="8.255" dx="2.2" dy="0.6" layer="1"/>
<wire x1="-3.84" y1="8.99" x2="1.44" y2="8.99" width="0.127" layer="49"/>
<wire x1="1.44" y1="-8.99" x2="-3.84" y2="-8.99" width="0.127" layer="49"/>
<wire x1="-3.84" y1="-8.99" x2="-3.84" y2="8.99" width="0.127" layer="49"/>
<rectangle x1="-5.2" y1="1.705" x2="-3.84" y2="2.105" layer="49"/>
<rectangle x1="-5.2" y1="0.435" x2="-3.84" y2="0.835" layer="49"/>
<rectangle x1="-5.2" y1="-0.835" x2="-3.84" y2="-0.435" layer="49"/>
<rectangle x1="-5.2" y1="-2.105" x2="-3.84" y2="-1.705" layer="49"/>
<rectangle x1="-5.2" y1="2.975" x2="-3.84" y2="3.375" layer="49"/>
<rectangle x1="-5.2" y1="-3.375" x2="-3.84" y2="-2.975" layer="49"/>
<rectangle x1="-5.2" y1="4.245" x2="-3.84" y2="4.645" layer="49"/>
<rectangle x1="-5.2" y1="-4.645" x2="-3.84" y2="-4.245" layer="49"/>
<rectangle x1="-5.2" y1="5.515" x2="-3.84" y2="5.915" layer="49"/>
<rectangle x1="-5.2" y1="-5.915" x2="-3.84" y2="-5.515" layer="49"/>
<rectangle x1="-5.2" y1="-7.185" x2="-3.84" y2="-6.785" layer="49"/>
<rectangle x1="-5.2" y1="-8.455" x2="-3.84" y2="-8.055" layer="49"/>
<rectangle x1="-5.2" y1="6.785" x2="-3.84" y2="7.185" layer="49"/>
<rectangle x1="-5.2" y1="8.055" x2="-3.84" y2="8.455" layer="49"/>
<wire x1="-1.44" y1="8.99" x2="3.84" y2="8.99" width="0.127" layer="49"/>
<wire x1="3.84" y1="8.99" x2="3.84" y2="-8.99" width="0.127" layer="49"/>
<wire x1="3.84" y1="-8.99" x2="-1.44" y2="-8.99" width="0.127" layer="49"/>
<rectangle x1="3.84" y1="1.705" x2="5.2" y2="2.105" layer="49"/>
<rectangle x1="3.84" y1="0.435" x2="5.2" y2="0.835" layer="49"/>
<rectangle x1="3.84" y1="-0.835" x2="5.2" y2="-0.435" layer="49"/>
<rectangle x1="3.84" y1="-2.105" x2="5.2" y2="-1.705" layer="49"/>
<rectangle x1="3.84" y1="2.975" x2="5.2" y2="3.375" layer="49"/>
<rectangle x1="3.84" y1="-3.375" x2="5.2" y2="-2.975" layer="49"/>
<rectangle x1="3.84" y1="4.245" x2="5.2" y2="4.645" layer="49"/>
<rectangle x1="3.84" y1="-4.645" x2="5.2" y2="-4.245" layer="49"/>
<rectangle x1="3.84" y1="5.515" x2="5.2" y2="5.915" layer="49"/>
<rectangle x1="3.84" y1="-5.915" x2="5.2" y2="-5.515" layer="49"/>
<rectangle x1="3.84" y1="6.785" x2="5.2" y2="7.185" layer="49"/>
<rectangle x1="3.84" y1="8.055" x2="5.2" y2="8.455" layer="49"/>
<rectangle x1="3.84" y1="-7.185" x2="5.2" y2="-6.785" layer="49"/>
<rectangle x1="3.84" y1="-8.455" x2="5.2" y2="-8.055" layer="49"/>
</package>
<package name="SO28-W">
<smd name="P$4" x="-4.55" y="4.445" dx="1.5" dy="0.6" layer="1"/>
<smd name="P$5" x="-4.55" y="3.175" dx="1.5" dy="0.6" layer="1"/>
<smd name="P$6" x="-4.55" y="1.905" dx="1.5" dy="0.6" layer="1"/>
<smd name="P$3" x="-4.55" y="5.715" dx="1.5" dy="0.6" layer="1"/>
<smd name="P$19" x="4.55" y="-3.175" dx="1.5" dy="0.6" layer="1"/>
<smd name="P$18" x="4.55" y="-4.445" dx="1.5" dy="0.6" layer="1"/>
<smd name="P$17" x="4.55" y="-5.715" dx="1.5" dy="0.6" layer="1"/>
<smd name="P$20" x="4.55" y="-1.905" dx="1.5" dy="0.6" layer="1"/>
<wire x1="-3.75" y1="8.99" x2="3.75" y2="8.99" width="0.127" layer="49"/>
<wire x1="3.75" y1="8.99" x2="3.75" y2="-8.99" width="0.127" layer="49"/>
<wire x1="3.75" y1="-8.99" x2="-3.75" y2="-8.99" width="0.127" layer="49"/>
<wire x1="-3.75" y1="-8.99" x2="-3.75" y2="8.99" width="0.127" layer="49"/>
<circle x="-2.795" y="8.3" radius="0.375" width="0.127" layer="21"/>
<rectangle x1="3.75" y1="1.705" x2="5.11" y2="2.105" layer="49"/>
<rectangle x1="3.75" y1="0.435" x2="5.11" y2="0.835" layer="49"/>
<rectangle x1="3.75" y1="-0.835" x2="5.11" y2="-0.435" layer="49"/>
<rectangle x1="3.75" y1="-2.105" x2="5.11" y2="-1.705" layer="49"/>
<rectangle x1="-5.11" y1="1.705" x2="-3.75" y2="2.105" layer="49"/>
<rectangle x1="-5.11" y1="0.435" x2="-3.75" y2="0.835" layer="49"/>
<rectangle x1="-5.11" y1="-0.835" x2="-3.75" y2="-0.435" layer="49"/>
<rectangle x1="-5.11" y1="-2.105" x2="-3.75" y2="-1.705" layer="49"/>
<smd name="P$21" x="4.55" y="-0.635" dx="1.5" dy="0.6" layer="1"/>
<smd name="P$2" x="-4.55" y="6.985" dx="1.5" dy="0.6" layer="1"/>
<smd name="P$7" x="-4.55" y="0.635" dx="1.5" dy="0.6" layer="1"/>
<smd name="P$16" x="4.55" y="-6.985" dx="1.5" dy="0.6" layer="1"/>
<rectangle x1="-5.11" y1="2.975" x2="-3.75" y2="3.375" layer="49"/>
<rectangle x1="-5.11" y1="-3.375" x2="-3.75" y2="-2.975" layer="49"/>
<rectangle x1="3.75" y1="2.975" x2="5.11" y2="3.375" layer="49"/>
<rectangle x1="3.75" y1="-3.375" x2="5.11" y2="-2.975" layer="49"/>
<rectangle x1="-5.11" y1="4.245" x2="-3.75" y2="4.645" layer="49"/>
<rectangle x1="3.75" y1="4.245" x2="5.11" y2="4.645" layer="49"/>
<rectangle x1="3.75" y1="-4.645" x2="5.11" y2="-4.245" layer="49"/>
<rectangle x1="-5.11" y1="-4.645" x2="-3.75" y2="-4.245" layer="49"/>
<smd name="P$22" x="4.55" y="0.635" dx="1.5" dy="0.6" layer="1"/>
<smd name="P$15" x="4.55" y="-8.255" dx="1.5" dy="0.6" layer="1"/>
<smd name="P$1" x="-4.55" y="8.255" dx="1.5" dy="0.6" layer="1"/>
<smd name="P$8" x="-4.55" y="-0.635" dx="1.5" dy="0.6" layer="1"/>
<rectangle x1="-5.11" y1="5.515" x2="-3.75" y2="5.915" layer="49"/>
<rectangle x1="3.75" y1="5.515" x2="5.11" y2="5.915" layer="49"/>
<rectangle x1="3.75" y1="-5.915" x2="5.11" y2="-5.515" layer="49"/>
<rectangle x1="-5.11" y1="-5.915" x2="-3.75" y2="-5.515" layer="49"/>
<smd name="P$9" x="-4.55" y="-1.905" dx="1.5" dy="0.6" layer="1"/>
<smd name="P$10" x="-4.55" y="-3.175" dx="1.5" dy="0.6" layer="1"/>
<smd name="P$23" x="4.55" y="1.905" dx="1.5" dy="0.6" layer="1"/>
<smd name="P$24" x="4.55" y="3.175" dx="1.5" dy="0.6" layer="1"/>
<rectangle x1="3.75" y1="6.785" x2="5.11" y2="7.185" layer="49"/>
<rectangle x1="3.75" y1="8.055" x2="5.11" y2="8.455" layer="49"/>
<rectangle x1="3.75" y1="-7.185" x2="5.11" y2="-6.785" layer="49"/>
<rectangle x1="3.75" y1="-8.455" x2="5.11" y2="-8.055" layer="49"/>
<rectangle x1="-5.11" y1="-7.185" x2="-3.75" y2="-6.785" layer="49"/>
<rectangle x1="-5.11" y1="-8.455" x2="-3.75" y2="-8.055" layer="49"/>
<rectangle x1="-5.11" y1="6.785" x2="-3.75" y2="7.185" layer="49"/>
<rectangle x1="-5.11" y1="8.055" x2="-3.75" y2="8.455" layer="49"/>
<smd name="P$11" x="-4.55" y="-4.445" dx="1.5" dy="0.6" layer="1"/>
<smd name="P$12" x="-4.55" y="-5.715" dx="1.5" dy="0.6" layer="1"/>
<smd name="P$13" x="-4.55" y="-6.985" dx="1.5" dy="0.6" layer="1"/>
<smd name="P$14" x="-4.55" y="-8.255" dx="1.5" dy="0.6" layer="1"/>
<smd name="P$25" x="4.55" y="4.445" dx="1.5" dy="0.6" layer="1"/>
<smd name="P$26" x="4.55" y="5.715" dx="1.5" dy="0.6" layer="1"/>
<smd name="P$27" x="4.55" y="6.985" dx="1.5" dy="0.6" layer="1"/>
<smd name="P$28" x="4.55" y="8.255" dx="1.5" dy="0.6" layer="1"/>
</package>
<package name="TSSOP28-5.3">
<smd name="P$19" x="3.5" y="-1.625" dx="1.7" dy="0.35" layer="1"/>
<smd name="P$18" x="3.5" y="-2.275" dx="1.7" dy="0.35" layer="1"/>
<smd name="P$17" x="3.5" y="-2.925" dx="1.7" dy="0.35" layer="1"/>
<smd name="P$16" x="3.5" y="-3.575" dx="1.7" dy="0.35" layer="1"/>
<smd name="P$5" x="-3.5" y="1.625" dx="1.7" dy="0.35" layer="1"/>
<smd name="P$4" x="-3.5" y="2.275" dx="1.7" dy="0.35" layer="1"/>
<smd name="P$3" x="-3.5" y="2.925" dx="1.7" dy="0.35" layer="1"/>
<smd name="P$2" x="-3.5" y="3.575" dx="1.7" dy="0.35" layer="1"/>
<wire x1="-2.65" y1="4.8" x2="2.65" y2="4.8" width="0.127" layer="49"/>
<wire x1="2.65" y1="4.8" x2="2.65" y2="-4.8" width="0.127" layer="49"/>
<wire x1="2.65" y1="-4.8" x2="-2.65" y2="-4.8" width="0.127" layer="49"/>
<wire x1="-2.65" y1="-4.8" x2="-2.65" y2="4.8" width="0.127" layer="49"/>
<circle x="-1.625" y="4.195" radius="0.325" width="0.127" layer="21"/>
<smd name="P$15" x="3.5" y="-4.225" dx="1.7" dy="0.35" layer="1"/>
<smd name="P$20" x="3.5" y="-0.975" dx="1.7" dy="0.35" layer="1"/>
<smd name="P$1" x="-3.5" y="4.225" dx="1.7" dy="0.35" layer="1"/>
<smd name="P$6" x="-3.5" y="0.975" dx="1.7" dy="0.35" layer="1"/>
<smd name="P$7" x="-3.5" y="0.325" dx="1.7" dy="0.35" layer="1"/>
<smd name="P$8" x="-3.5" y="-0.325" dx="1.7" dy="0.35" layer="1"/>
<smd name="P$21" x="3.5" y="-0.325" dx="1.7" dy="0.35" layer="1"/>
<smd name="P$22" x="3.5" y="0.325" dx="1.7" dy="0.35" layer="1"/>
<smd name="P$9" x="-3.5" y="-0.975" dx="1.7" dy="0.35" layer="1"/>
<smd name="P$10" x="-3.5" y="-1.625" dx="1.7" dy="0.35" layer="1"/>
<smd name="P$23" x="3.5" y="0.975" dx="1.7" dy="0.35" layer="1"/>
<smd name="P$24" x="3.5" y="1.625" dx="1.7" dy="0.35" layer="1"/>
<rectangle x1="2.65" y1="4.075" x2="4.1" y2="4.375" layer="49"/>
<rectangle x1="-4.1" y1="4.075" x2="-2.65" y2="4.375" layer="49"/>
<smd name="P$11" x="-3.5" y="-2.275" dx="1.7" dy="0.35" layer="1"/>
<smd name="P$12" x="-3.5" y="-2.925" dx="1.7" dy="0.35" layer="1"/>
<smd name="P$13" x="-3.5" y="-3.575" dx="1.7" dy="0.35" layer="1"/>
<smd name="P$14" x="-3.5" y="-4.225" dx="1.7" dy="0.35" layer="1"/>
<smd name="P$25" x="3.5" y="2.275" dx="1.7" dy="0.35" layer="1"/>
<smd name="P$26" x="3.5" y="2.925" dx="1.7" dy="0.35" layer="1"/>
<smd name="P$27" x="3.5" y="3.575" dx="1.7" dy="0.35" layer="1"/>
<smd name="P$28" x="3.5" y="4.225" dx="1.7" dy="0.35" layer="1"/>
<rectangle x1="-4.1" y1="3.425" x2="-2.65" y2="3.725" layer="49"/>
<rectangle x1="-4.1" y1="2.775" x2="-2.65" y2="3.075" layer="49"/>
<rectangle x1="-4.1" y1="2.125" x2="-2.65" y2="2.425" layer="49"/>
<rectangle x1="-4.1" y1="1.475" x2="-2.65" y2="1.775" layer="49"/>
<rectangle x1="-4.1" y1="0.825" x2="-2.65" y2="1.125" layer="49"/>
<rectangle x1="-4.1" y1="0.175" x2="-2.65" y2="0.475" layer="49"/>
<rectangle x1="-4.1" y1="-0.475" x2="-2.65" y2="-0.175" layer="49"/>
<rectangle x1="-4.1" y1="-1.125" x2="-2.65" y2="-0.825" layer="49"/>
<rectangle x1="-4.1" y1="-1.775" x2="-2.65" y2="-1.475" layer="49"/>
<rectangle x1="-4.1" y1="-2.425" x2="-2.65" y2="-2.125" layer="49"/>
<rectangle x1="-4.1" y1="-3.075" x2="-2.65" y2="-2.775" layer="49"/>
<rectangle x1="-4.1" y1="-3.725" x2="-2.65" y2="-3.425" layer="49"/>
<rectangle x1="-4.1" y1="-4.375" x2="-2.65" y2="-4.075" layer="49"/>
<rectangle x1="2.65" y1="3.425" x2="4.1" y2="3.725" layer="49"/>
<rectangle x1="2.65" y1="2.775" x2="4.1" y2="3.075" layer="49"/>
<rectangle x1="2.65" y1="2.125" x2="4.1" y2="2.425" layer="49"/>
<rectangle x1="2.65" y1="1.475" x2="4.1" y2="1.775" layer="49"/>
<rectangle x1="2.65" y1="0.825" x2="4.1" y2="1.125" layer="49"/>
<rectangle x1="2.65" y1="0.175" x2="4.1" y2="0.475" layer="49"/>
<rectangle x1="2.65" y1="-0.475" x2="4.1" y2="-0.175" layer="49"/>
<rectangle x1="2.65" y1="-1.125" x2="4.1" y2="-0.825" layer="49"/>
<rectangle x1="2.65" y1="-1.775" x2="4.1" y2="-1.475" layer="49"/>
<rectangle x1="2.65" y1="-2.425" x2="4.1" y2="-2.125" layer="49"/>
<rectangle x1="2.65" y1="-3.075" x2="4.1" y2="-2.775" layer="49"/>
<rectangle x1="2.65" y1="-3.725" x2="4.1" y2="-3.425" layer="49"/>
<rectangle x1="2.65" y1="-4.375" x2="4.1" y2="-4.075" layer="49"/>
</package>
<package name="TSSOP28-NW">
<smd name="P$19" x="3.15" y="-1.625" dx="2.4" dy="0.35" layer="1"/>
<smd name="P$18" x="3.15" y="-2.275" dx="2.4" dy="0.35" layer="1"/>
<smd name="P$17" x="3.15" y="-2.925" dx="2.4" dy="0.35" layer="1"/>
<smd name="P$16" x="3.15" y="-3.575" dx="2.4" dy="0.35" layer="1"/>
<smd name="P$5" x="-3.15" y="1.625" dx="2.4" dy="0.35" layer="1"/>
<smd name="P$4" x="-3.15" y="2.275" dx="2.4" dy="0.35" layer="1"/>
<smd name="P$3" x="-3.15" y="2.925" dx="2.4" dy="0.35" layer="1"/>
<smd name="P$2" x="-3.15" y="3.575" dx="2.4" dy="0.35" layer="1"/>
<wire x1="-1.95" y1="4.8" x2="1.95" y2="4.8" width="0.127" layer="21"/>
<wire x1="1.95" y1="4.8" x2="1.95" y2="-4.8" width="0.127" layer="21"/>
<wire x1="1.95" y1="-4.8" x2="-1.95" y2="-4.8" width="0.127" layer="21"/>
<wire x1="-1.95" y1="-4.8" x2="-1.95" y2="4.8" width="0.127" layer="21"/>
<rectangle x1="1.95" y1="0.825" x2="3" y2="1.125" layer="21"/>
<rectangle x1="1.95" y1="0.175" x2="3" y2="0.475" layer="21"/>
<rectangle x1="1.95" y1="-0.475" x2="3" y2="-0.175" layer="21"/>
<rectangle x1="1.95" y1="-1.125" x2="3" y2="-0.825" layer="21"/>
<rectangle x1="-3" y1="0.825" x2="-1.95" y2="1.125" layer="21"/>
<rectangle x1="-3" y1="0.175" x2="-1.95" y2="0.475" layer="21"/>
<rectangle x1="-3" y1="-0.475" x2="-1.95" y2="-0.175" layer="21"/>
<rectangle x1="-3" y1="-1.125" x2="-1.95" y2="-0.825" layer="21"/>
<circle x="-1.125" y="4.195" radius="0.325" width="0.127" layer="21"/>
<smd name="P$15" x="3.15" y="-4.225" dx="2.4" dy="0.35" layer="1"/>
<smd name="P$20" x="3.15" y="-0.975" dx="2.4" dy="0.35" layer="1"/>
<smd name="P$1" x="-3.15" y="4.225" dx="2.4" dy="0.35" layer="1"/>
<smd name="P$6" x="-3.15" y="0.975" dx="2.4" dy="0.35" layer="1"/>
<rectangle x1="-3" y1="1.475" x2="-1.95" y2="1.775" layer="21"/>
<rectangle x1="-3" y1="-1.775" x2="-1.95" y2="-1.475" layer="21"/>
<rectangle x1="1.95" y1="-1.775" x2="3" y2="-1.475" layer="21"/>
<rectangle x1="1.95" y1="1.475" x2="3" y2="1.775" layer="21"/>
<rectangle x1="-3" y1="2.125" x2="-1.95" y2="2.425" layer="21"/>
<rectangle x1="1.95" y1="2.125" x2="3" y2="2.425" layer="21"/>
<rectangle x1="1.95" y1="-2.425" x2="3" y2="-2.125" layer="21"/>
<rectangle x1="-3" y1="-2.425" x2="-1.95" y2="-2.125" layer="21"/>
<smd name="P$7" x="-3.15" y="0.325" dx="2.4" dy="0.35" layer="1"/>
<smd name="P$8" x="-3.15" y="-0.325" dx="2.4" dy="0.35" layer="1"/>
<smd name="P$21" x="3.15" y="-0.325" dx="2.4" dy="0.35" layer="1"/>
<smd name="P$22" x="3.15" y="0.325" dx="2.4" dy="0.35" layer="1"/>
<rectangle x1="-3" y1="2.775" x2="-1.95" y2="3.075" layer="21"/>
<rectangle x1="-3" y1="-3.075" x2="-1.95" y2="-2.775" layer="21"/>
<rectangle x1="1.95" y1="-3.075" x2="3" y2="-2.775" layer="21"/>
<rectangle x1="1.95" y1="2.775" x2="3" y2="3.075" layer="21"/>
<smd name="P$9" x="-3.15" y="-0.975" dx="2.4" dy="0.35" layer="1"/>
<smd name="P$10" x="-3.15" y="-1.625" dx="2.4" dy="0.35" layer="1"/>
<smd name="P$23" x="3.15" y="0.975" dx="2.4" dy="0.35" layer="1"/>
<smd name="P$24" x="3.15" y="1.625" dx="2.4" dy="0.35" layer="1"/>
<rectangle x1="1.95" y1="3.425" x2="3" y2="3.725" layer="21"/>
<rectangle x1="1.95" y1="4.075" x2="3" y2="4.375" layer="21"/>
<rectangle x1="1.95" y1="-3.725" x2="3" y2="-3.425" layer="21"/>
<rectangle x1="1.95" y1="-4.375" x2="3" y2="-4.075" layer="21"/>
<rectangle x1="-3" y1="-3.725" x2="-1.95" y2="-3.425" layer="21"/>
<rectangle x1="-3" y1="-4.375" x2="-1.95" y2="-4.075" layer="21"/>
<rectangle x1="-3" y1="3.425" x2="-1.95" y2="3.725" layer="21"/>
<rectangle x1="-3" y1="4.075" x2="-1.95" y2="4.375" layer="21"/>
<smd name="P$11" x="-3.15" y="-2.275" dx="2.4" dy="0.35" layer="1"/>
<smd name="P$12" x="-3.15" y="-2.925" dx="2.4" dy="0.35" layer="1"/>
<smd name="P$13" x="-3.15" y="-3.575" dx="2.4" dy="0.35" layer="1"/>
<smd name="P$14" x="-3.15" y="-4.225" dx="2.4" dy="0.35" layer="1"/>
<smd name="P$25" x="3.15" y="2.275" dx="2.4" dy="0.35" layer="1"/>
<smd name="P$26" x="3.15" y="2.925" dx="2.4" dy="0.35" layer="1"/>
<smd name="P$27" x="3.15" y="3.575" dx="2.4" dy="0.35" layer="1"/>
<smd name="P$28" x="3.15" y="4.225" dx="2.4" dy="0.35" layer="1"/>
<wire x1="-2.65" y1="4.8" x2="2.65" y2="4.8" width="0.127" layer="21"/>
<wire x1="2.65" y1="4.8" x2="2.65" y2="-4.8" width="0.127" layer="21"/>
<wire x1="2.65" y1="-4.8" x2="-2.65" y2="-4.8" width="0.127" layer="21"/>
<wire x1="-2.65" y1="-4.8" x2="-2.65" y2="4.8" width="0.127" layer="21"/>
<rectangle x1="-4.1" y1="4.075" x2="-2.65" y2="4.375" layer="21"/>
<rectangle x1="2.65" y1="4.075" x2="4.1" y2="4.375" layer="21"/>
<rectangle x1="-4.1" y1="3.425" x2="-2.65" y2="3.725" layer="21"/>
<rectangle x1="-4.1" y1="2.775" x2="-2.65" y2="3.075" layer="21"/>
<rectangle x1="-4.1" y1="2.125" x2="-2.65" y2="2.425" layer="21"/>
<rectangle x1="-4.1" y1="1.475" x2="-2.65" y2="1.775" layer="21"/>
<rectangle x1="-4.1" y1="0.825" x2="-2.65" y2="1.125" layer="21"/>
<rectangle x1="-4.1" y1="0.175" x2="-2.65" y2="0.475" layer="21"/>
<rectangle x1="-4.1" y1="-0.475" x2="-2.65" y2="-0.175" layer="21"/>
<rectangle x1="-4.1" y1="-1.125" x2="-2.65" y2="-0.825" layer="21"/>
<rectangle x1="-4.1" y1="-1.775" x2="-2.65" y2="-1.475" layer="21"/>
<rectangle x1="-4.1" y1="-2.425" x2="-2.65" y2="-2.125" layer="21"/>
<rectangle x1="-4.1" y1="-3.075" x2="-2.65" y2="-2.775" layer="21"/>
<rectangle x1="-4.1" y1="-3.725" x2="-2.65" y2="-3.425" layer="21"/>
<rectangle x1="-4.1" y1="-4.375" x2="-2.65" y2="-4.075" layer="21"/>
<rectangle x1="2.65" y1="3.425" x2="4.1" y2="3.725" layer="21"/>
<rectangle x1="2.65" y1="2.775" x2="4.1" y2="3.075" layer="21"/>
<rectangle x1="2.65" y1="2.125" x2="4.1" y2="2.425" layer="21"/>
<rectangle x1="2.65" y1="1.475" x2="4.1" y2="1.775" layer="21"/>
<rectangle x1="2.65" y1="0.825" x2="4.1" y2="1.125" layer="21"/>
<rectangle x1="2.65" y1="0.175" x2="4.1" y2="0.475" layer="21"/>
<rectangle x1="2.65" y1="-0.475" x2="4.1" y2="-0.175" layer="21"/>
<rectangle x1="2.65" y1="-1.125" x2="4.1" y2="-0.825" layer="21"/>
<rectangle x1="2.65" y1="-1.775" x2="4.1" y2="-1.475" layer="21"/>
<rectangle x1="2.65" y1="-2.425" x2="4.1" y2="-2.125" layer="21"/>
<rectangle x1="2.65" y1="-3.075" x2="4.1" y2="-2.775" layer="21"/>
<rectangle x1="2.65" y1="-3.725" x2="4.1" y2="-3.425" layer="21"/>
<rectangle x1="2.65" y1="-4.375" x2="4.1" y2="-4.075" layer="21"/>
</package>
<package name="PADS-14">
<pad name="1" x="-16.51" y="0" drill="1.016" diameter="1.778" rot="R90"/>
<pad name="2" x="-13.97" y="0" drill="1.016" diameter="1.778" rot="R90"/>
<pad name="3" x="-11.43" y="0" drill="1.016" diameter="1.778" rot="R90"/>
<pad name="4" x="-8.89" y="0" drill="1.016" diameter="1.778" rot="R90"/>
<rectangle x1="-4.064" y1="-0.254" x2="-3.556" y2="0.254" layer="51"/>
<rectangle x1="-6.604" y1="-0.254" x2="-6.096" y2="0.254" layer="51"/>
<rectangle x1="-9.144" y1="-0.254" x2="-8.636" y2="0.254" layer="51"/>
<rectangle x1="-11.684" y1="-0.254" x2="-11.176" y2="0.254" layer="51"/>
<pad name="5" x="-6.35" y="0" drill="1.016" diameter="1.778" rot="R90"/>
<pad name="6" x="-3.81" y="0" drill="1.016" diameter="1.778" rot="R90"/>
<rectangle x1="-16.764" y1="-0.254" x2="-16.256" y2="0.254" layer="51"/>
<rectangle x1="-14.224" y1="-0.254" x2="-13.716" y2="0.254" layer="51"/>
<pad name="7" x="-1.27" y="0" drill="1.016" diameter="1.778" rot="R90"/>
<pad name="8" x="1.27" y="0" drill="1.016" diameter="1.778" rot="R90"/>
<rectangle x1="6.096" y1="-0.254" x2="6.604" y2="0.254" layer="51"/>
<rectangle x1="3.556" y1="-0.254" x2="4.064" y2="0.254" layer="51"/>
<rectangle x1="1.016" y1="-0.254" x2="1.524" y2="0.254" layer="51"/>
<rectangle x1="-1.524" y1="-0.254" x2="-1.016" y2="0.254" layer="51"/>
<pad name="9" x="3.81" y="0" drill="1.016" diameter="1.778" rot="R90"/>
<pad name="10" x="6.35" y="0" drill="1.016" diameter="1.778" rot="R90"/>
<pad name="11" x="8.89" y="0" drill="1.016" diameter="1.778" rot="R90"/>
<pad name="12" x="11.43" y="0" drill="1.016" diameter="1.778" rot="R90"/>
<rectangle x1="16.256" y1="-0.254" x2="16.764" y2="0.254" layer="51"/>
<rectangle x1="13.716" y1="-0.254" x2="14.224" y2="0.254" layer="51"/>
<rectangle x1="11.176" y1="-0.254" x2="11.684" y2="0.254" layer="51"/>
<rectangle x1="8.636" y1="-0.254" x2="9.144" y2="0.254" layer="51"/>
<pad name="13" x="13.97" y="0" drill="1.016" diameter="1.778" rot="R90"/>
<pad name="14" x="16.51" y="0" drill="1.016" diameter="1.778" rot="R90"/>
</package>
</packages>
<symbols>
<symbol name="28-PIN">
<pin name="P$1" x="-10.16" y="13.97" length="middle"/>
<pin name="P$2" x="-10.16" y="11.43" length="middle"/>
<pin name="P$3" x="-10.16" y="8.89" length="middle"/>
<pin name="P$4" x="-10.16" y="6.35" length="middle"/>
<pin name="P$5" x="-10.16" y="3.81" length="middle"/>
<pin name="P$6" x="-10.16" y="1.27" length="middle"/>
<pin name="P$7" x="-10.16" y="-1.27" length="middle"/>
<pin name="P$8" x="-10.16" y="-3.81" length="middle"/>
<pin name="P$9" x="-10.16" y="-6.35" length="middle"/>
<pin name="P$10" x="-10.16" y="-8.89" length="middle"/>
<pin name="P$11" x="-10.16" y="-11.43" length="middle"/>
<pin name="P$12" x="-10.16" y="-13.97" length="middle"/>
<pin name="P$13" x="-10.16" y="-16.51" length="middle"/>
<pin name="P$14" x="-10.16" y="-19.05" length="middle"/>
<pin name="P$15" x="10.16" y="-19.05" length="middle" rot="R180"/>
<pin name="P$16" x="10.16" y="-16.51" length="middle" rot="R180"/>
<pin name="P$17" x="10.16" y="-13.97" length="middle" rot="R180"/>
<pin name="P$18" x="10.16" y="-11.43" length="middle" rot="R180"/>
<pin name="P$19" x="10.16" y="-8.89" length="middle" rot="R180"/>
<pin name="P$20" x="10.16" y="-6.35" length="middle" rot="R180"/>
<wire x1="-5.08" y1="15.24" x2="5.08" y2="15.24" width="0.254" layer="94"/>
<wire x1="5.08" y1="15.24" x2="5.08" y2="-20.32" width="0.254" layer="94"/>
<wire x1="5.08" y1="-20.32" x2="-5.08" y2="-20.32" width="0.254" layer="94"/>
<wire x1="-5.08" y1="-20.32" x2="-5.08" y2="15.24" width="0.254" layer="94"/>
<pin name="P$21" x="10.16" y="-3.81" length="middle" rot="R180"/>
<pin name="P$22" x="10.16" y="-1.27" length="middle" rot="R180"/>
<pin name="P$23" x="10.16" y="1.27" length="middle" rot="R180"/>
<pin name="P$24" x="10.16" y="3.81" length="middle" rot="R180"/>
<pin name="P$25" x="10.16" y="6.35" length="middle" rot="R180"/>
<pin name="P$26" x="10.16" y="8.89" length="middle" rot="R180"/>
<pin name="P$27" x="10.16" y="11.43" length="middle" rot="R180"/>
<pin name="P$28" x="10.16" y="13.97" length="middle" rot="R180"/>
</symbol>
<symbol name="PINS-14">
<wire x1="-5.08" y1="-19.05" x2="2.54" y2="-19.05" width="0.4064" layer="94"/>
<wire x1="2.54" y1="-19.05" x2="2.54" y2="19.05" width="0.4064" layer="94"/>
<wire x1="2.54" y1="19.05" x2="-5.08" y2="19.05" width="0.4064" layer="94"/>
<wire x1="-5.08" y1="19.05" x2="-5.08" y2="-19.05" width="0.4064" layer="94"/>
<pin name="1" x="-1.27" y="16.51" visible="pad" length="short" direction="pas" function="dot"/>
<pin name="2" x="-1.27" y="13.97" visible="pad" length="short" direction="pas" function="dot"/>
<pin name="3" x="-1.27" y="11.43" visible="pad" length="short" direction="pas" function="dot"/>
<pin name="4" x="-1.27" y="8.89" visible="pad" length="short" direction="pas" function="dot"/>
<pin name="5" x="-1.27" y="6.35" visible="pad" length="short" direction="pas" function="dot"/>
<pin name="6" x="-1.27" y="3.81" visible="pad" length="short" direction="pas" function="dot"/>
<pin name="7" x="-1.27" y="1.27" visible="pad" length="short" direction="pas" function="dot"/>
<pin name="8" x="-1.27" y="-1.27" visible="pad" length="short" direction="pas" function="dot"/>
<pin name="9" x="-1.27" y="-3.81" visible="pad" length="short" direction="pas" function="dot"/>
<pin name="10" x="-1.27" y="-6.35" visible="pad" length="short" direction="pas" function="dot"/>
<pin name="11" x="-1.27" y="-8.89" visible="pad" length="short" direction="pas" function="dot"/>
<pin name="12" x="-1.27" y="-11.43" visible="pad" length="short" direction="pas" function="dot"/>
<pin name="13" x="-1.27" y="-13.97" visible="pad" length="short" direction="pas" function="dot"/>
<pin name="14" x="-1.27" y="-16.51" visible="pad" length="short" direction="pas" function="dot"/>
</symbol>
</symbols>
<devicesets>
<deviceset name="28-PIN">
<gates>
<gate name="G$1" symbol="28-PIN" x="0" y="0"/>
</gates>
<devices>
<device name="SOIC-NW" package="SO28-NW">
<connects>
<connect gate="G$1" pin="P$1" pad="P$1"/>
<connect gate="G$1" pin="P$10" pad="P$10"/>
<connect gate="G$1" pin="P$11" pad="P$11"/>
<connect gate="G$1" pin="P$12" pad="P$12"/>
<connect gate="G$1" pin="P$13" pad="P$13"/>
<connect gate="G$1" pin="P$14" pad="P$14"/>
<connect gate="G$1" pin="P$15" pad="P$15"/>
<connect gate="G$1" pin="P$16" pad="P$16"/>
<connect gate="G$1" pin="P$17" pad="P$17"/>
<connect gate="G$1" pin="P$18" pad="P$18"/>
<connect gate="G$1" pin="P$19" pad="P$19"/>
<connect gate="G$1" pin="P$2" pad="P$2"/>
<connect gate="G$1" pin="P$20" pad="P$20"/>
<connect gate="G$1" pin="P$21" pad="P$21"/>
<connect gate="G$1" pin="P$22" pad="P$22"/>
<connect gate="G$1" pin="P$23" pad="P$23"/>
<connect gate="G$1" pin="P$24" pad="P$24"/>
<connect gate="G$1" pin="P$25" pad="P$25"/>
<connect gate="G$1" pin="P$26" pad="P$26"/>
<connect gate="G$1" pin="P$27" pad="P$27"/>
<connect gate="G$1" pin="P$28" pad="P$28"/>
<connect gate="G$1" pin="P$3" pad="P$3"/>
<connect gate="G$1" pin="P$4" pad="P$4"/>
<connect gate="G$1" pin="P$5" pad="P$5"/>
<connect gate="G$1" pin="P$6" pad="P$6"/>
<connect gate="G$1" pin="P$7" pad="P$7"/>
<connect gate="G$1" pin="P$8" pad="P$8"/>
<connect gate="G$1" pin="P$9" pad="P$9"/>
</connects>
<technologies>
<technology name=""/>
</technologies>
</device>
<device name="SOIC-NM" package="SO28-NM">
<connects>
<connect gate="G$1" pin="P$1" pad="P$1"/>
<connect gate="G$1" pin="P$10" pad="P$10"/>
<connect gate="G$1" pin="P$11" pad="P$11"/>
<connect gate="G$1" pin="P$12" pad="P$12"/>
<connect gate="G$1" pin="P$13" pad="P$13"/>
<connect gate="G$1" pin="P$14" pad="P$14"/>
<connect gate="G$1" pin="P$15" pad="P$15"/>
<connect gate="G$1" pin="P$16" pad="P$16"/>
<connect gate="G$1" pin="P$17" pad="P$17"/>
<connect gate="G$1" pin="P$18" pad="P$18"/>
<connect gate="G$1" pin="P$19" pad="P$19"/>
<connect gate="G$1" pin="P$2" pad="P$2"/>
<connect gate="G$1" pin="P$20" pad="P$20"/>
<connect gate="G$1" pin="P$21" pad="P$21"/>
<connect gate="G$1" pin="P$22" pad="P$22"/>
<connect gate="G$1" pin="P$23" pad="P$23"/>
<connect gate="G$1" pin="P$24" pad="P$24"/>
<connect gate="G$1" pin="P$25" pad="P$25"/>
<connect gate="G$1" pin="P$26" pad="P$26"/>
<connect gate="G$1" pin="P$27" pad="P$27"/>
<connect gate="G$1" pin="P$28" pad="P$28"/>
<connect gate="G$1" pin="P$3" pad="P$3"/>
<connect gate="G$1" pin="P$4" pad="P$4"/>
<connect gate="G$1" pin="P$5" pad="P$5"/>
<connect gate="G$1" pin="P$6" pad="P$6"/>
<connect gate="G$1" pin="P$7" pad="P$7"/>
<connect gate="G$1" pin="P$8" pad="P$8"/>
<connect gate="G$1" pin="P$9" pad="P$9"/>
</connects>
<technologies>
<technology name=""/>
</technologies>
</device>
<device name="SOIC-M" package="SO28-M">
<connects>
<connect gate="G$1" pin="P$1" pad="P$1"/>
<connect gate="G$1" pin="P$10" pad="P$10"/>
<connect gate="G$1" pin="P$11" pad="P$11"/>
<connect gate="G$1" pin="P$12" pad="P$12"/>
<connect gate="G$1" pin="P$13" pad="P$13"/>
<connect gate="G$1" pin="P$14" pad="P$14"/>
<connect gate="G$1" pin="P$15" pad="P$15"/>
<connect gate="G$1" pin="P$16" pad="P$16"/>
<connect gate="G$1" pin="P$17" pad="P$17"/>
<connect gate="G$1" pin="P$18" pad="P$18"/>
<connect gate="G$1" pin="P$19" pad="P$19"/>
<connect gate="G$1" pin="P$2" pad="P$2"/>
<connect gate="G$1" pin="P$20" pad="P$20"/>
<connect gate="G$1" pin="P$21" pad="P$21"/>
<connect gate="G$1" pin="P$22" pad="P$22"/>
<connect gate="G$1" pin="P$23" pad="P$23"/>
<connect gate="G$1" pin="P$24" pad="P$24"/>
<connect gate="G$1" pin="P$25" pad="P$25"/>
<connect gate="G$1" pin="P$26" pad="P$26"/>
<connect gate="G$1" pin="P$27" pad="P$27"/>
<connect gate="G$1" pin="P$28" pad="P$28"/>
<connect gate="G$1" pin="P$3" pad="P$3"/>
<connect gate="G$1" pin="P$4" pad="P$4"/>
<connect gate="G$1" pin="P$5" pad="P$5"/>
<connect gate="G$1" pin="P$6" pad="P$6"/>
<connect gate="G$1" pin="P$7" pad="P$7"/>
<connect gate="G$1" pin="P$8" pad="P$8"/>
<connect gate="G$1" pin="P$9" pad="P$9"/>
</connects>
<technologies>
<technology name=""/>
</technologies>
</device>
<device name="TSSOP-N" package="TSSOP28-3.9">
<connects>
<connect gate="G$1" pin="P$1" pad="P$1"/>
<connect gate="G$1" pin="P$10" pad="P$10"/>
<connect gate="G$1" pin="P$11" pad="P$11"/>
<connect gate="G$1" pin="P$12" pad="P$12"/>
<connect gate="G$1" pin="P$13" pad="P$13"/>
<connect gate="G$1" pin="P$14" pad="P$14"/>
<connect gate="G$1" pin="P$15" pad="P$15"/>
<connect gate="G$1" pin="P$16" pad="P$16"/>
<connect gate="G$1" pin="P$17" pad="P$17"/>
<connect gate="G$1" pin="P$18" pad="P$18"/>
<connect gate="G$1" pin="P$19" pad="P$19"/>
<connect gate="G$1" pin="P$2" pad="P$2"/>
<connect gate="G$1" pin="P$20" pad="P$20"/>
<connect gate="G$1" pin="P$21" pad="P$21"/>
<connect gate="G$1" pin="P$22" pad="P$22"/>
<connect gate="G$1" pin="P$23" pad="P$23"/>
<connect gate="G$1" pin="P$24" pad="P$24"/>
<connect gate="G$1" pin="P$25" pad="P$25"/>
<connect gate="G$1" pin="P$26" pad="P$26"/>
<connect gate="G$1" pin="P$27" pad="P$27"/>
<connect gate="G$1" pin="P$28" pad="P$28"/>
<connect gate="G$1" pin="P$3" pad="P$3"/>
<connect gate="G$1" pin="P$4" pad="P$4"/>
<connect gate="G$1" pin="P$5" pad="P$5"/>
<connect gate="G$1" pin="P$6" pad="P$6"/>
<connect gate="G$1" pin="P$7" pad="P$7"/>
<connect gate="G$1" pin="P$8" pad="P$8"/>
<connect gate="G$1" pin="P$9" pad="P$9"/>
</connects>
<technologies>
<technology name=""/>
</technologies>
</device>
<device name="SOIC-N" package="SO28-N">
<connects>
<connect gate="G$1" pin="P$1" pad="P$1"/>
<connect gate="G$1" pin="P$10" pad="P$10"/>
<connect gate="G$1" pin="P$11" pad="P$11"/>
<connect gate="G$1" pin="P$12" pad="P$12"/>
<connect gate="G$1" pin="P$13" pad="P$13"/>
<connect gate="G$1" pin="P$14" pad="P$14"/>
<connect gate="G$1" pin="P$15" pad="P$15"/>
<connect gate="G$1" pin="P$16" pad="P$16"/>
<connect gate="G$1" pin="P$17" pad="P$17"/>
<connect gate="G$1" pin="P$18" pad="P$18"/>
<connect gate="G$1" pin="P$19" pad="P$19"/>
<connect gate="G$1" pin="P$2" pad="P$2"/>
<connect gate="G$1" pin="P$20" pad="P$20"/>
<connect gate="G$1" pin="P$21" pad="P$21"/>
<connect gate="G$1" pin="P$22" pad="P$22"/>
<connect gate="G$1" pin="P$23" pad="P$23"/>
<connect gate="G$1" pin="P$24" pad="P$24"/>
<connect gate="G$1" pin="P$25" pad="P$25"/>
<connect gate="G$1" pin="P$26" pad="P$26"/>
<connect gate="G$1" pin="P$27" pad="P$27"/>
<connect gate="G$1" pin="P$28" pad="P$28"/>
<connect gate="G$1" pin="P$3" pad="P$3"/>
<connect gate="G$1" pin="P$4" pad="P$4"/>
<connect gate="G$1" pin="P$5" pad="P$5"/>
<connect gate="G$1" pin="P$6" pad="P$6"/>
<connect gate="G$1" pin="P$7" pad="P$7"/>
<connect gate="G$1" pin="P$8" pad="P$8"/>
<connect gate="G$1" pin="P$9" pad="P$9"/>
</connects>
<technologies>
<technology name=""/>
</technologies>
</device>
<device name="SOIC-MW" package="SO28-MW">
<connects>
<connect gate="G$1" pin="P$1" pad="P$1"/>
<connect gate="G$1" pin="P$10" pad="P$10"/>
<connect gate="G$1" pin="P$11" pad="P$11"/>
<connect gate="G$1" pin="P$12" pad="P$12"/>
<connect gate="G$1" pin="P$13" pad="P$13"/>
<connect gate="G$1" pin="P$14" pad="P$14"/>
<connect gate="G$1" pin="P$15" pad="P$15"/>
<connect gate="G$1" pin="P$16" pad="P$16"/>
<connect gate="G$1" pin="P$17" pad="P$17"/>
<connect gate="G$1" pin="P$18" pad="P$18"/>
<connect gate="G$1" pin="P$19" pad="P$19"/>
<connect gate="G$1" pin="P$2" pad="P$2"/>
<connect gate="G$1" pin="P$20" pad="P$20"/>
<connect gate="G$1" pin="P$21" pad="P$21"/>
<connect gate="G$1" pin="P$22" pad="P$22"/>
<connect gate="G$1" pin="P$23" pad="P$23"/>
<connect gate="G$1" pin="P$24" pad="P$24"/>
<connect gate="G$1" pin="P$25" pad="P$25"/>
<connect gate="G$1" pin="P$26" pad="P$26"/>
<connect gate="G$1" pin="P$27" pad="P$27"/>
<connect gate="G$1" pin="P$28" pad="P$28"/>
<connect gate="G$1" pin="P$3" pad="P$3"/>
<connect gate="G$1" pin="P$4" pad="P$4"/>
<connect gate="G$1" pin="P$5" pad="P$5"/>
<connect gate="G$1" pin="P$6" pad="P$6"/>
<connect gate="G$1" pin="P$7" pad="P$7"/>
<connect gate="G$1" pin="P$8" pad="P$8"/>
<connect gate="G$1" pin="P$9" pad="P$9"/>
</connects>
<technologies>
<technology name=""/>
</technologies>
</device>
<device name="SOIC-W" package="SO28-W">
<connects>
<connect gate="G$1" pin="P$1" pad="P$1"/>
<connect gate="G$1" pin="P$10" pad="P$10"/>
<connect gate="G$1" pin="P$11" pad="P$11"/>
<connect gate="G$1" pin="P$12" pad="P$12"/>
<connect gate="G$1" pin="P$13" pad="P$13"/>
<connect gate="G$1" pin="P$14" pad="P$14"/>
<connect gate="G$1" pin="P$15" pad="P$15"/>
<connect gate="G$1" pin="P$16" pad="P$16"/>
<connect gate="G$1" pin="P$17" pad="P$17"/>
<connect gate="G$1" pin="P$18" pad="P$18"/>
<connect gate="G$1" pin="P$19" pad="P$19"/>
<connect gate="G$1" pin="P$2" pad="P$2"/>
<connect gate="G$1" pin="P$20" pad="P$20"/>
<connect gate="G$1" pin="P$21" pad="P$21"/>
<connect gate="G$1" pin="P$22" pad="P$22"/>
<connect gate="G$1" pin="P$23" pad="P$23"/>
<connect gate="G$1" pin="P$24" pad="P$24"/>
<connect gate="G$1" pin="P$25" pad="P$25"/>
<connect gate="G$1" pin="P$26" pad="P$26"/>
<connect gate="G$1" pin="P$27" pad="P$27"/>
<connect gate="G$1" pin="P$28" pad="P$28"/>
<connect gate="G$1" pin="P$3" pad="P$3"/>
<connect gate="G$1" pin="P$4" pad="P$4"/>
<connect gate="G$1" pin="P$5" pad="P$5"/>
<connect gate="G$1" pin="P$6" pad="P$6"/>
<connect gate="G$1" pin="P$7" pad="P$7"/>
<connect gate="G$1" pin="P$8" pad="P$8"/>
<connect gate="G$1" pin="P$9" pad="P$9"/>
</connects>
<technologies>
<technology name=""/>
</technologies>
</device>
<device name="TSSOP-W" package="TSSOP28-5.3">
<connects>
<connect gate="G$1" pin="P$1" pad="P$1"/>
<connect gate="G$1" pin="P$10" pad="P$10"/>
<connect gate="G$1" pin="P$11" pad="P$11"/>
<connect gate="G$1" pin="P$12" pad="P$12"/>
<connect gate="G$1" pin="P$13" pad="P$13"/>
<connect gate="G$1" pin="P$14" pad="P$14"/>
<connect gate="G$1" pin="P$15" pad="P$15"/>
<connect gate="G$1" pin="P$16" pad="P$16"/>
<connect gate="G$1" pin="P$17" pad="P$17"/>
<connect gate="G$1" pin="P$18" pad="P$18"/>
<connect gate="G$1" pin="P$19" pad="P$19"/>
<connect gate="G$1" pin="P$2" pad="P$2"/>
<connect gate="G$1" pin="P$20" pad="P$20"/>
<connect gate="G$1" pin="P$21" pad="P$21"/>
<connect gate="G$1" pin="P$22" pad="P$22"/>
<connect gate="G$1" pin="P$23" pad="P$23"/>
<connect gate="G$1" pin="P$24" pad="P$24"/>
<connect gate="G$1" pin="P$25" pad="P$25"/>
<connect gate="G$1" pin="P$26" pad="P$26"/>
<connect gate="G$1" pin="P$27" pad="P$27"/>
<connect gate="G$1" pin="P$28" pad="P$28"/>
<connect gate="G$1" pin="P$3" pad="P$3"/>
<connect gate="G$1" pin="P$4" pad="P$4"/>
<connect gate="G$1" pin="P$5" pad="P$5"/>
<connect gate="G$1" pin="P$6" pad="P$6"/>
<connect gate="G$1" pin="P$7" pad="P$7"/>
<connect gate="G$1" pin="P$8" pad="P$8"/>
<connect gate="G$1" pin="P$9" pad="P$9"/>
</connects>
<technologies>
<technology name=""/>
</technologies>
</device>
<device name="TSSOP-NW" package="TSSOP28-NW">
<connects>
<connect gate="G$1" pin="P$1" pad="P$1"/>
<connect gate="G$1" pin="P$10" pad="P$10"/>
<connect gate="G$1" pin="P$11" pad="P$11"/>
<connect gate="G$1" pin="P$12" pad="P$12"/>
<connect gate="G$1" pin="P$13" pad="P$13"/>
<connect gate="G$1" pin="P$14" pad="P$14"/>
<connect gate="G$1" pin="P$15" pad="P$15"/>
<connect gate="G$1" pin="P$16" pad="P$16"/>
<connect gate="G$1" pin="P$17" pad="P$17"/>
<connect gate="G$1" pin="P$18" pad="P$18"/>
<connect gate="G$1" pin="P$19" pad="P$19"/>
<connect gate="G$1" pin="P$2" pad="P$2"/>
<connect gate="G$1" pin="P$20" pad="P$20"/>
<connect gate="G$1" pin="P$21" pad="P$21"/>
<connect gate="G$1" pin="P$22" pad="P$22"/>
<connect gate="G$1" pin="P$23" pad="P$23"/>
<connect gate="G$1" pin="P$24" pad="P$24"/>
<connect gate="G$1" pin="P$25" pad="P$25"/>
<connect gate="G$1" pin="P$26" pad="P$26"/>
<connect gate="G$1" pin="P$27" pad="P$27"/>
<connect gate="G$1" pin="P$28" pad="P$28"/>
<connect gate="G$1" pin="P$3" pad="P$3"/>
<connect gate="G$1" pin="P$4" pad="P$4"/>
<connect gate="G$1" pin="P$5" pad="P$5"/>
<connect gate="G$1" pin="P$6" pad="P$6"/>
<connect gate="G$1" pin="P$7" pad="P$7"/>
<connect gate="G$1" pin="P$8" pad="P$8"/>
<connect gate="G$1" pin="P$9" pad="P$9"/>
</connects>
<technologies>
<technology name=""/>
</technologies>
</device>
</devices>
</deviceset>
<deviceset name="PADS-14" prefix="JP" uservalue="yes">
<description>&lt;b&gt;PIN HEADER&lt;/b&gt;</description>
<gates>
<gate name="G$1" symbol="PINS-14" x="0" y="0"/>
</gates>
<devices>
<device name="" package="PADS-14">
<connects>
<connect gate="G$1" pin="1" pad="1"/>
<connect gate="G$1" pin="10" pad="10"/>
<connect gate="G$1" pin="11" pad="11"/>
<connect gate="G$1" pin="12" pad="12"/>
<connect gate="G$1" pin="13" pad="13"/>
<connect gate="G$1" pin="14" pad="14"/>
<connect gate="G$1" pin="2" pad="2"/>
<connect gate="G$1" pin="3" pad="3"/>
<connect gate="G$1" pin="4" pad="4"/>
<connect gate="G$1" pin="5" pad="5"/>
<connect gate="G$1" pin="6" pad="6"/>
<connect gate="G$1" pin="7" pad="7"/>
<connect gate="G$1" pin="8" pad="8"/>
<connect gate="G$1" pin="9" pad="9"/>
</connects>
<technologies>
<technology name=""/>
</technologies>
</device>
</devices>
</deviceset>
</devicesets>
</library>
</libraries>
<attributes>
</attributes>
<variantdefs>
</variantdefs>
<classes>
<class number="0" name="default" width="0" drill="0">
</class>
</classes>
<parts>
<part name="U$5" library="breakouts" deviceset="28-PIN" device="SOIC-NW" value="28-PINSOIC-NW"/>
<part name="U$6" library="breakouts" deviceset="28-PIN" device="TSSOP-NW"/>
<part name="JP3" library="breakouts" deviceset="PADS-14" device=""/>
<part name="JP4" library="breakouts" deviceset="PADS-14" device=""/>
</parts>
<sheets>
<sheet>
<plain>
</plain>
<instances>
<instance part="U$5" gate="G$1" x="91.44" y="50.8"/>
<instance part="U$6" gate="G$1" x="91.44" y="106.68" rot="MR0"/>
<instance part="JP3" gate="G$1" x="25.4" y="104.14" rot="MR0"/>
<instance part="JP4" gate="G$1" x="165.1" y="104.14"/>
</instances>
<busses>
</busses>
<nets>
<net name="N$13" class="0">
<segment>
<pinref part="U$6" gate="G$1" pin="P$28"/>
<pinref part="JP3" gate="G$1" pin="1"/>
<wire x1="26.67" y1="120.65" x2="74.93" y2="120.65" width="0.1524" layer="91"/>
<pinref part="U$5" gate="G$1" pin="P$1"/>
<wire x1="74.93" y1="120.65" x2="81.28" y2="120.65" width="0.1524" layer="91"/>
<wire x1="81.28" y1="64.77" x2="74.93" y2="64.77" width="0.1524" layer="91"/>
<wire x1="74.93" y1="64.77" x2="74.93" y2="120.65" width="0.1524" layer="91"/>
<junction x="74.93" y="120.65"/>
</segment>
</net>
<net name="N$30" class="0">
<segment>
<pinref part="U$6" gate="G$1" pin="P$27"/>
<pinref part="JP3" gate="G$1" pin="2"/>
<wire x1="26.67" y1="118.11" x2="73.66" y2="118.11" width="0.1524" layer="91"/>
<pinref part="U$5" gate="G$1" pin="P$2"/>
<wire x1="73.66" y1="118.11" x2="81.28" y2="118.11" width="0.1524" layer="91"/>
<wire x1="81.28" y1="62.23" x2="73.66" y2="62.23" width="0.1524" layer="91"/>
<wire x1="73.66" y1="62.23" x2="73.66" y2="118.11" width="0.1524" layer="91"/>
<junction x="73.66" y="118.11"/>
</segment>
</net>
<net name="N$31" class="0">
<segment>
<pinref part="U$6" gate="G$1" pin="P$26"/>
<pinref part="JP3" gate="G$1" pin="3"/>
<wire x1="26.67" y1="115.57" x2="72.39" y2="115.57" width="0.1524" layer="91"/>
<pinref part="U$5" gate="G$1" pin="P$3"/>
<wire x1="72.39" y1="115.57" x2="81.28" y2="115.57" width="0.1524" layer="91"/>
<wire x1="81.28" y1="59.69" x2="72.39" y2="59.69" width="0.1524" layer="91"/>
<wire x1="72.39" y1="59.69" x2="72.39" y2="115.57" width="0.1524" layer="91"/>
<junction x="72.39" y="115.57"/>
</segment>
</net>
<net name="N$32" class="0">
<segment>
<pinref part="U$6" gate="G$1" pin="P$25"/>
<pinref part="JP3" gate="G$1" pin="4"/>
<wire x1="26.67" y1="113.03" x2="71.12" y2="113.03" width="0.1524" layer="91"/>
<pinref part="U$5" gate="G$1" pin="P$4"/>
<wire x1="71.12" y1="113.03" x2="81.28" y2="113.03" width="0.1524" layer="91"/>
<wire x1="81.28" y1="57.15" x2="71.12" y2="57.15" width="0.1524" layer="91"/>
<wire x1="71.12" y1="57.15" x2="71.12" y2="113.03" width="0.1524" layer="91"/>
<junction x="71.12" y="113.03"/>
</segment>
</net>
<net name="N$33" class="0">
<segment>
<pinref part="U$6" gate="G$1" pin="P$24"/>
<pinref part="JP3" gate="G$1" pin="5"/>
<wire x1="26.67" y1="110.49" x2="69.85" y2="110.49" width="0.1524" layer="91"/>
<pinref part="U$5" gate="G$1" pin="P$5"/>
<wire x1="69.85" y1="110.49" x2="81.28" y2="110.49" width="0.1524" layer="91"/>
<wire x1="81.28" y1="54.61" x2="69.85" y2="54.61" width="0.1524" layer="91"/>
<wire x1="69.85" y1="54.61" x2="69.85" y2="110.49" width="0.1524" layer="91"/>
<junction x="69.85" y="110.49"/>
</segment>
</net>
<net name="N$34" class="0">
<segment>
<pinref part="U$6" gate="G$1" pin="P$23"/>
<pinref part="JP3" gate="G$1" pin="6"/>
<wire x1="26.67" y1="107.95" x2="68.58" y2="107.95" width="0.1524" layer="91"/>
<pinref part="U$5" gate="G$1" pin="P$6"/>
<wire x1="68.58" y1="107.95" x2="81.28" y2="107.95" width="0.1524" layer="91"/>
<wire x1="81.28" y1="52.07" x2="68.58" y2="52.07" width="0.1524" layer="91"/>
<wire x1="68.58" y1="52.07" x2="68.58" y2="107.95" width="0.1524" layer="91"/>
<junction x="68.58" y="107.95"/>
</segment>
</net>
<net name="N$35" class="0">
<segment>
<pinref part="U$6" gate="G$1" pin="P$22"/>
<pinref part="JP3" gate="G$1" pin="7"/>
<wire x1="26.67" y1="105.41" x2="67.31" y2="105.41" width="0.1524" layer="91"/>
<pinref part="U$5" gate="G$1" pin="P$7"/>
<wire x1="67.31" y1="105.41" x2="81.28" y2="105.41" width="0.1524" layer="91"/>
<wire x1="81.28" y1="49.53" x2="67.31" y2="49.53" width="0.1524" layer="91"/>
<wire x1="67.31" y1="49.53" x2="67.31" y2="105.41" width="0.1524" layer="91"/>
<junction x="67.31" y="105.41"/>
</segment>
</net>
<net name="N$36" class="0">
<segment>
<pinref part="U$6" gate="G$1" pin="P$21"/>
<pinref part="JP3" gate="G$1" pin="8"/>
<wire x1="26.67" y1="102.87" x2="66.04" y2="102.87" width="0.1524" layer="91"/>
<pinref part="U$5" gate="G$1" pin="P$8"/>
<wire x1="66.04" y1="102.87" x2="81.28" y2="102.87" width="0.1524" layer="91"/>
<wire x1="81.28" y1="46.99" x2="66.04" y2="46.99" width="0.1524" layer="91"/>
<wire x1="66.04" y1="46.99" x2="66.04" y2="102.87" width="0.1524" layer="91"/>
<junction x="66.04" y="102.87"/>
</segment>
</net>
<net name="N$37" class="0">
<segment>
<pinref part="U$6" gate="G$1" pin="P$20"/>
<pinref part="JP3" gate="G$1" pin="9"/>
<wire x1="26.67" y1="100.33" x2="64.77" y2="100.33" width="0.1524" layer="91"/>
<pinref part="U$5" gate="G$1" pin="P$9"/>
<wire x1="64.77" y1="100.33" x2="81.28" y2="100.33" width="0.1524" layer="91"/>
<wire x1="81.28" y1="44.45" x2="64.77" y2="44.45" width="0.1524" layer="91"/>
<wire x1="64.77" y1="44.45" x2="64.77" y2="100.33" width="0.1524" layer="91"/>
<junction x="64.77" y="100.33"/>
</segment>
</net>
<net name="N$38" class="0">
<segment>
<pinref part="U$6" gate="G$1" pin="P$19"/>
<pinref part="JP3" gate="G$1" pin="10"/>
<wire x1="26.67" y1="97.79" x2="63.5" y2="97.79" width="0.1524" layer="91"/>
<pinref part="U$5" gate="G$1" pin="P$10"/>
<wire x1="63.5" y1="97.79" x2="81.28" y2="97.79" width="0.1524" layer="91"/>
<wire x1="81.28" y1="41.91" x2="63.5" y2="41.91" width="0.1524" layer="91"/>
<wire x1="63.5" y1="41.91" x2="63.5" y2="97.79" width="0.1524" layer="91"/>
<junction x="63.5" y="97.79"/>
</segment>
</net>
<net name="N$39" class="0">
<segment>
<pinref part="U$6" gate="G$1" pin="P$18"/>
<pinref part="JP3" gate="G$1" pin="11"/>
<wire x1="26.67" y1="95.25" x2="62.23" y2="95.25" width="0.1524" layer="91"/>
<pinref part="U$5" gate="G$1" pin="P$11"/>
<wire x1="62.23" y1="95.25" x2="81.28" y2="95.25" width="0.1524" layer="91"/>
<wire x1="81.28" y1="39.37" x2="62.23" y2="39.37" width="0.1524" layer="91"/>
<wire x1="62.23" y1="39.37" x2="62.23" y2="95.25" width="0.1524" layer="91"/>
<junction x="62.23" y="95.25"/>
</segment>
</net>
<net name="N$40" class="0">
<segment>
<pinref part="U$6" gate="G$1" pin="P$17"/>
<pinref part="JP3" gate="G$1" pin="12"/>
<wire x1="26.67" y1="92.71" x2="60.96" y2="92.71" width="0.1524" layer="91"/>
<pinref part="U$5" gate="G$1" pin="P$12"/>
<wire x1="60.96" y1="92.71" x2="81.28" y2="92.71" width="0.1524" layer="91"/>
<wire x1="81.28" y1="36.83" x2="60.96" y2="36.83" width="0.1524" layer="91"/>
<wire x1="60.96" y1="36.83" x2="60.96" y2="92.71" width="0.1524" layer="91"/>
<junction x="60.96" y="92.71"/>
</segment>
</net>
<net name="N$41" class="0">
<segment>
<pinref part="U$6" gate="G$1" pin="P$15"/>
<pinref part="JP3" gate="G$1" pin="14"/>
<wire x1="26.67" y1="87.63" x2="58.42" y2="87.63" width="0.1524" layer="91"/>
<pinref part="U$5" gate="G$1" pin="P$14"/>
<wire x1="58.42" y1="87.63" x2="81.28" y2="87.63" width="0.1524" layer="91"/>
<wire x1="81.28" y1="31.75" x2="58.42" y2="31.75" width="0.1524" layer="91"/>
<wire x1="58.42" y1="31.75" x2="58.42" y2="87.63" width="0.1524" layer="91"/>
<junction x="58.42" y="87.63"/>
</segment>
</net>
<net name="N$42" class="0">
<segment>
<pinref part="U$6" gate="G$1" pin="P$1"/>
<pinref part="JP4" gate="G$1" pin="1"/>
<wire x1="163.83" y1="120.65" x2="107.95" y2="120.65" width="0.1524" layer="91"/>
<pinref part="U$5" gate="G$1" pin="P$28"/>
<wire x1="107.95" y1="120.65" x2="101.6" y2="120.65" width="0.1524" layer="91"/>
<wire x1="101.6" y1="64.77" x2="107.95" y2="64.77" width="0.1524" layer="91"/>
<wire x1="107.95" y1="64.77" x2="107.95" y2="120.65" width="0.1524" layer="91"/>
<junction x="107.95" y="120.65"/>
</segment>
</net>
<net name="N$43" class="0">
<segment>
<pinref part="U$6" gate="G$1" pin="P$2"/>
<pinref part="JP4" gate="G$1" pin="2"/>
<wire x1="163.83" y1="118.11" x2="109.22" y2="118.11" width="0.1524" layer="91"/>
<pinref part="U$5" gate="G$1" pin="P$27"/>
<wire x1="109.22" y1="118.11" x2="101.6" y2="118.11" width="0.1524" layer="91"/>
<wire x1="101.6" y1="62.23" x2="109.22" y2="62.23" width="0.1524" layer="91"/>
<wire x1="109.22" y1="62.23" x2="109.22" y2="118.11" width="0.1524" layer="91"/>
<junction x="109.22" y="118.11"/>
</segment>
</net>
<net name="N$44" class="0">
<segment>
<pinref part="U$6" gate="G$1" pin="P$3"/>
<pinref part="JP4" gate="G$1" pin="3"/>
<wire x1="163.83" y1="115.57" x2="110.49" y2="115.57" width="0.1524" layer="91"/>
<pinref part="U$5" gate="G$1" pin="P$26"/>
<wire x1="110.49" y1="115.57" x2="101.6" y2="115.57" width="0.1524" layer="91"/>
<wire x1="101.6" y1="59.69" x2="110.49" y2="59.69" width="0.1524" layer="91"/>
<wire x1="110.49" y1="59.69" x2="110.49" y2="115.57" width="0.1524" layer="91"/>
<junction x="110.49" y="115.57"/>
</segment>
</net>
<net name="N$45" class="0">
<segment>
<pinref part="U$6" gate="G$1" pin="P$4"/>
<pinref part="JP4" gate="G$1" pin="4"/>
<wire x1="163.83" y1="113.03" x2="111.76" y2="113.03" width="0.1524" layer="91"/>
<pinref part="U$5" gate="G$1" pin="P$25"/>
<wire x1="111.76" y1="113.03" x2="101.6" y2="113.03" width="0.1524" layer="91"/>
<wire x1="101.6" y1="57.15" x2="111.76" y2="57.15" width="0.1524" layer="91"/>
<wire x1="111.76" y1="57.15" x2="111.76" y2="113.03" width="0.1524" layer="91"/>
<junction x="111.76" y="113.03"/>
</segment>
</net>
<net name="N$46" class="0">
<segment>
<pinref part="U$6" gate="G$1" pin="P$5"/>
<pinref part="JP4" gate="G$1" pin="5"/>
<wire x1="163.83" y1="110.49" x2="113.03" y2="110.49" width="0.1524" layer="91"/>
<pinref part="U$5" gate="G$1" pin="P$24"/>
<wire x1="113.03" y1="110.49" x2="101.6" y2="110.49" width="0.1524" layer="91"/>
<wire x1="101.6" y1="54.61" x2="113.03" y2="54.61" width="0.1524" layer="91"/>
<wire x1="113.03" y1="54.61" x2="113.03" y2="110.49" width="0.1524" layer="91"/>
<junction x="113.03" y="110.49"/>
</segment>
</net>
<net name="N$47" class="0">
<segment>
<pinref part="U$6" gate="G$1" pin="P$6"/>
<pinref part="JP4" gate="G$1" pin="6"/>
<wire x1="163.83" y1="107.95" x2="114.3" y2="107.95" width="0.1524" layer="91"/>
<pinref part="U$5" gate="G$1" pin="P$23"/>
<wire x1="114.3" y1="107.95" x2="101.6" y2="107.95" width="0.1524" layer="91"/>
<wire x1="101.6" y1="52.07" x2="114.3" y2="52.07" width="0.1524" layer="91"/>
<wire x1="114.3" y1="52.07" x2="114.3" y2="107.95" width="0.1524" layer="91"/>
<junction x="114.3" y="107.95"/>
</segment>
</net>
<net name="N$48" class="0">
<segment>
<pinref part="U$6" gate="G$1" pin="P$7"/>
<pinref part="JP4" gate="G$1" pin="7"/>
<wire x1="163.83" y1="105.41" x2="115.57" y2="105.41" width="0.1524" layer="91"/>
<pinref part="U$5" gate="G$1" pin="P$22"/>
<wire x1="115.57" y1="105.41" x2="101.6" y2="105.41" width="0.1524" layer="91"/>
<wire x1="101.6" y1="49.53" x2="115.57" y2="49.53" width="0.1524" layer="91"/>
<wire x1="115.57" y1="49.53" x2="115.57" y2="105.41" width="0.1524" layer="91"/>
<junction x="115.57" y="105.41"/>
</segment>
</net>
<net name="N$49" class="0">
<segment>
<pinref part="U$6" gate="G$1" pin="P$8"/>
<pinref part="JP4" gate="G$1" pin="8"/>
<wire x1="163.83" y1="102.87" x2="116.84" y2="102.87" width="0.1524" layer="91"/>
<pinref part="U$5" gate="G$1" pin="P$21"/>
<wire x1="116.84" y1="102.87" x2="101.6" y2="102.87" width="0.1524" layer="91"/>
<wire x1="101.6" y1="46.99" x2="116.84" y2="46.99" width="0.1524" layer="91"/>
<wire x1="116.84" y1="46.99" x2="116.84" y2="102.87" width="0.1524" layer="91"/>
<junction x="116.84" y="102.87"/>
</segment>
</net>
<net name="N$50" class="0">
<segment>
<pinref part="U$6" gate="G$1" pin="P$9"/>
<pinref part="JP4" gate="G$1" pin="9"/>
<wire x1="163.83" y1="100.33" x2="118.11" y2="100.33" width="0.1524" layer="91"/>
<pinref part="U$5" gate="G$1" pin="P$20"/>
<wire x1="118.11" y1="100.33" x2="101.6" y2="100.33" width="0.1524" layer="91"/>
<wire x1="101.6" y1="44.45" x2="118.11" y2="44.45" width="0.1524" layer="91"/>
<wire x1="118.11" y1="44.45" x2="118.11" y2="100.33" width="0.1524" layer="91"/>
<junction x="118.11" y="100.33"/>
</segment>
</net>
<net name="N$51" class="0">
<segment>
<pinref part="U$6" gate="G$1" pin="P$10"/>
<pinref part="JP4" gate="G$1" pin="10"/>
<wire x1="163.83" y1="97.79" x2="119.38" y2="97.79" width="0.1524" layer="91"/>
<pinref part="U$5" gate="G$1" pin="P$19"/>
<wire x1="119.38" y1="97.79" x2="101.6" y2="97.79" width="0.1524" layer="91"/>
<wire x1="101.6" y1="41.91" x2="119.38" y2="41.91" width="0.1524" layer="91"/>
<wire x1="119.38" y1="41.91" x2="119.38" y2="97.79" width="0.1524" layer="91"/>
<junction x="119.38" y="97.79"/>
</segment>
</net>
<net name="N$52" class="0">
<segment>
<pinref part="U$6" gate="G$1" pin="P$11"/>
<pinref part="JP4" gate="G$1" pin="11"/>
<wire x1="163.83" y1="95.25" x2="120.65" y2="95.25" width="0.1524" layer="91"/>
<pinref part="U$5" gate="G$1" pin="P$18"/>
<wire x1="120.65" y1="95.25" x2="101.6" y2="95.25" width="0.1524" layer="91"/>
<wire x1="101.6" y1="39.37" x2="120.65" y2="39.37" width="0.1524" layer="91"/>
<wire x1="120.65" y1="39.37" x2="120.65" y2="95.25" width="0.1524" layer="91"/>
<junction x="120.65" y="95.25"/>
</segment>
</net>
<net name="N$53" class="0">
<segment>
<pinref part="U$6" gate="G$1" pin="P$12"/>
<pinref part="JP4" gate="G$1" pin="12"/>
<wire x1="163.83" y1="92.71" x2="121.92" y2="92.71" width="0.1524" layer="91"/>
<pinref part="U$5" gate="G$1" pin="P$17"/>
<wire x1="121.92" y1="92.71" x2="101.6" y2="92.71" width="0.1524" layer="91"/>
<wire x1="101.6" y1="36.83" x2="121.92" y2="36.83" width="0.1524" layer="91"/>
<wire x1="121.92" y1="36.83" x2="121.92" y2="92.71" width="0.1524" layer="91"/>
<junction x="121.92" y="92.71"/>
</segment>
</net>
<net name="N$54" class="0">
<segment>
<pinref part="U$6" gate="G$1" pin="P$13"/>
<pinref part="JP4" gate="G$1" pin="13"/>
<wire x1="163.83" y1="90.17" x2="123.19" y2="90.17" width="0.1524" layer="91"/>
<pinref part="U$5" gate="G$1" pin="P$16"/>
<wire x1="123.19" y1="90.17" x2="101.6" y2="90.17" width="0.1524" layer="91"/>
<wire x1="101.6" y1="34.29" x2="123.19" y2="34.29" width="0.1524" layer="91"/>
<wire x1="123.19" y1="34.29" x2="123.19" y2="90.17" width="0.1524" layer="91"/>
<junction x="123.19" y="90.17"/>
</segment>
</net>
<net name="N$55" class="0">
<segment>
<pinref part="U$6" gate="G$1" pin="P$14"/>
<pinref part="JP4" gate="G$1" pin="14"/>
<wire x1="163.83" y1="87.63" x2="124.46" y2="87.63" width="0.1524" layer="91"/>
<pinref part="U$5" gate="G$1" pin="P$15"/>
<wire x1="124.46" y1="87.63" x2="101.6" y2="87.63" width="0.1524" layer="91"/>
<wire x1="101.6" y1="31.75" x2="124.46" y2="31.75" width="0.1524" layer="91"/>
<wire x1="124.46" y1="31.75" x2="124.46" y2="87.63" width="0.1524" layer="91"/>
<junction x="124.46" y="87.63"/>
</segment>
</net>
<net name="N$56" class="0">
<segment>
<pinref part="U$5" gate="G$1" pin="P$13"/>
<wire x1="81.28" y1="34.29" x2="59.69" y2="34.29" width="0.1524" layer="91"/>
<pinref part="U$6" gate="G$1" pin="P$16"/>
<pinref part="JP3" gate="G$1" pin="13"/>
<wire x1="26.67" y1="90.17" x2="59.69" y2="90.17" width="0.1524" layer="91"/>
<wire x1="59.69" y1="90.17" x2="81.28" y2="90.17" width="0.1524" layer="91"/>
<wire x1="59.69" y1="34.29" x2="59.69" y2="90.17" width="0.1524" layer="91"/>
<junction x="59.69" y="90.17"/>
</segment>
</net>
</nets>
</sheet>
</sheets>
</schematic>
</drawing>
</eagle>
